<svg width="17" height="9" viewBox="0 0 17 9" fill="none" xmlns="http://www.w3.org/2000/svg">
<path d="M8.01761 0.549996L8.01757 0.550037L1.09882 7.48798L1.0988 7.488C0.833277 7.75441 0.833743 8.18571 1.10015 8.45164L1.10017 8.45166C1.36662 8.71745 1.79817 8.71674 2.06388 8.45031L2.06388 8.45031L8.50002 1.99634L14.9361 8.45054L14.9362 8.45055C15.2019 8.71694 15.6332 8.71766 15.8997 8.45191L15.8997 8.45188C16.0332 8.31864 16.1 8.14382 16.1 7.96928C16.1 7.7952 16.0336 7.62105 15.901 7.48803L15.901 7.48801L8.98254 0.550119C8.85478 0.421714 8.681 0.349731 8.50003 0.349731C8.31893 0.349731 8.14543 0.421967 8.01761 0.549996Z" fill="#787878" stroke="#787878" stroke-width="0.2"/>
</svg>
