<svg width="912" height="912" viewBox="0 0 912 912" fill="none" xmlns="http://www.w3.org/2000/svg">
<circle cx="456" cy="456" r="455.5" stroke="url(#paint0_linear)"/>
<circle cx="456" cy="456" r="349.616" stroke="url(#paint1_linear)" stroke-width="0.767544"/>
<circle cx="456" cy="456" r="402.558" stroke="url(#paint2_linear)" stroke-width="0.883772"/>
<circle cx="456" cy="456" r="207" fill="#57C2DE"/>
<defs>
<linearGradient id="paint0_linear" x1="456" y1="0" x2="456" y2="912" gradientUnits="userSpaceOnUse">
<stop offset="0.0829094" stop-color="#57C2DE" stop-opacity="0"/>
<stop offset="0.46314" stop-color="#57C2DE"/>
<stop offset="0.853788" stop-color="#57C2DE" stop-opacity="0"/>
</linearGradient>
<linearGradient id="paint1_linear" x1="456" y1="106" x2="456" y2="806" gradientUnits="userSpaceOnUse">
<stop offset="0.0829094" stop-color="#57C2DE" stop-opacity="0"/>
<stop offset="0.46314" stop-color="#57C2DE"/>
<stop offset="0.853788" stop-color="#57C2DE" stop-opacity="0"/>
</linearGradient>
<linearGradient id="paint2_linear" x1="456" y1="53" x2="456" y2="859" gradientUnits="userSpaceOnUse">
<stop offset="0.0829094" stop-color="#57C2DE" stop-opacity="0"/>
<stop offset="0.46314" stop-color="#57C2DE"/>
<stop offset="0.853788" stop-color="#57C2DE" stop-opacity="0"/>
</linearGradient>
</defs>
</svg>
