<svg width="42" height="50" viewBox="0 0 42 50" fill="none" xmlns="http://www.w3.org/2000/svg">
<path fill-rule="evenodd" clip-rule="evenodd" d="M18.9544 0.515339C18.4031 0.814151 17.0584 1.29133 15.966 1.57602C13.7291 2.15845 11.8907 3.40209 11.1712 4.81915C10.9052 5.34331 10.5859 7.28205 10.4619 9.12755C10.3383 10.973 10.1423 13.07 10.0272 13.7874C9.85196 14.8749 9.96711 15.2415 10.7205 15.9949C11.9164 17.1909 13.7136 17.1771 16.2475 15.9522C19.2098 14.5206 22.0323 14.5984 25.2542 16.1994C27.5635 17.3466 27.7199 17.4978 27.6239 18.4875C27.3914 20.8801 26.3774 23.0491 24.7138 24.7127C22.8941 26.5325 21.4265 27.0428 19.2094 26.6271C17.5854 26.3223 14.8456 23.6245 14.1717 21.6663C13.5892 19.9745 13.1484 19.3705 12.4957 19.3705C11.144 19.3705 12.5116 23.3038 14.7114 25.7434C19.9851 31.5925 27.9795 27.7726 29.4937 18.6793C29.6382 17.8136 30.0663 16.6854 30.4456 16.1726C31.0973 15.291 31.1132 14.9989 30.7331 10.859C30.2104 5.16247 30.198 5.11337 28.9289 3.66841C28.1604 2.79281 27.2646 2.26759 25.8437 1.85999C24.7424 1.54387 23.1615 0.983337 22.3307 0.61459C20.5329 -0.183301 20.2585 -0.191425 18.9544 0.515339ZM25.0995 3.73198C26.1616 4.08943 27.2435 4.74109 27.6161 5.24723C28.409 6.32416 28.882 9.62416 28.2953 9.98655C28.0745 10.1229 26.9821 9.87741 25.8677 9.44084C22.8927 8.27562 17.9125 8.27597 15.0783 9.4419C13.9046 9.92509 12.904 10.1518 12.7401 9.97171C12.5826 9.79899 12.5632 8.7196 12.6974 7.57345C12.8984 5.85227 13.1191 5.34754 13.964 4.67363C16.2266 2.86981 21.2725 2.44278 25.0995 3.73198ZM26.0666 11.7688C28.2232 12.7408 29.2218 13.721 28.7817 14.4331C28.4122 15.0307 27.0033 14.8127 24.8554 13.8259C21.8433 12.442 19.047 12.507 15.5855 14.0413C13.342 15.036 12.9121 15.1267 12.4819 14.6969C11.7649 13.9795 12.1863 13.2417 13.8464 12.3089C17.5794 10.2108 22.1619 10.0081 26.0666 11.7688ZM12.1856 29.5192C10.0667 29.8258 9.88976 30.2877 9.88976 35.5071C9.88976 39.6986 9.81982 40.2534 9.27165 40.423C7.60911 40.9365 7.59392 40.981 7.59392 45.3696C7.59392 49.334 7.63348 49.5696 8.30033 49.5696C8.94422 49.5696 9.02228 49.2754 9.18334 46.2413C9.35642 42.9827 9.3822 42.9011 10.4196 42.3282L11.4792 41.7436L11.6558 36.8637C11.7995 32.8873 11.938 31.9178 12.4025 31.6257C12.7161 31.4286 13.2325 31.3668 13.5504 31.4886C14.047 31.6794 14.1282 32.3988 14.1282 36.596C14.1282 39.9246 14.2631 41.6161 14.5521 41.905C15.1815 42.5344 26.2644 42.497 26.7899 41.8637C27.0167 41.5903 27.2166 39.3694 27.2749 36.4773L27.3734 31.5561H28.2564H29.1395L29.3161 36.8514L29.4927 42.1466L30.5523 42.3285L31.6119 42.5108L31.715 45.6684C31.8206 48.9017 32.1548 49.8546 33.0611 49.5067C33.4804 49.346 33.5574 48.516 33.4768 45.0274L33.3779 40.7455L32.3183 40.5621L31.2587 40.3792V36.3208V32.2625L32.5747 32.3392C35.0447 32.4833 37.9968 34.5831 38.83 36.7888C39.0366 37.3356 39.2058 40.2061 39.2058 43.1674C39.2058 47.2098 39.3284 48.7191 39.6975 49.2238C40.115 49.7949 40.2743 49.8253 40.7571 49.4248C41.2265 49.0348 41.3251 48.1426 41.3251 44.2765C41.3251 38.5944 40.9217 36.2371 39.6311 34.3817C38.0296 32.0792 35.6222 30.8889 30.6861 29.9586C25.7176 29.0226 25.3383 29.1208 25.0776 31.4155C24.9038 32.9431 24.8717 32.9767 23.135 33.4288C21.2499 33.9194 17.7556 33.7636 16.5844 33.1367C16.0875 32.8707 15.8942 32.3957 15.8942 31.4378C15.8942 29.3606 15.3235 29.0657 12.1856 29.5192ZM3.68323 32.1922C2.50493 33.0042 1.62969 33.9915 0.971668 35.2513C0.020839 37.0718 0 37.2424 0 43.2144C0 48.0738 0.0992509 49.3555 0.486717 49.5042C1.55516 49.9143 1.76603 48.9222 1.76603 43.4832C1.76603 36.4741 2.40427 34.8141 5.76184 33.0925C6.6551 32.6344 7.07012 32.2 6.99453 31.8023C6.80062 30.7854 5.50294 30.9383 3.68323 32.1922ZM24.901 37.9138V40.3862H20.4859H16.0709L15.9635 38.3066C15.9045 37.1629 15.9239 36.0503 16.0069 35.8341C16.1062 35.5752 17.6472 35.4414 20.5294 35.4414H24.901V37.9138Z" fill="#57C2DE"/>
</svg>
