<svg width="20" height="20" viewBox="0 0 20 20" fill="none" xmlns="http://www.w3.org/2000/svg">
<path fill-rule="evenodd" clip-rule="evenodd" d="M2.875 4.75049C2.57663 4.75049 2.29048 4.86901 2.07951 5.07999C1.86853 5.29097 1.75 5.57712 1.75 5.87549V17.1255C1.75 17.4239 1.86853 17.71 2.07951 17.921C2.29048 18.132 2.57663 18.2505 2.875 18.2505H14.125C14.2727 18.2505 14.419 18.2214 14.5555 18.1649C14.692 18.1083 14.816 18.0255 14.9205 17.921C15.025 17.8165 15.1078 17.6925 15.1644 17.556C15.2209 17.4195 15.25 17.2732 15.25 17.1255V8.50049C15.25 8.08628 15.5858 7.75049 16 7.75049C16.4142 7.75049 16.75 8.08628 16.75 8.50049V17.1255C16.75 17.4702 16.6821 17.8116 16.5502 18.13C16.4183 18.4485 16.2249 18.7379 15.9812 18.9816C15.7374 19.2254 15.448 19.4188 15.1295 19.5507C14.8111 19.6826 14.4697 19.7505 14.125 19.7505H2.875C2.17881 19.7505 1.51113 19.4739 1.01884 18.9816C0.526562 18.4894 0.25 17.8217 0.25 17.1255V5.87549C0.25 5.1793 0.526562 4.51162 1.01884 4.01933C1.51113 3.52705 2.17881 3.25049 2.875 3.25049H10.7256C11.1398 3.25049 11.4756 3.58627 11.4756 4.00049C11.4756 4.4147 11.1398 4.75049 10.7256 4.75049H2.875Z" fill="#595959"/>
<path d="M19.5597 0.496596C19.4913 0.421334 19.4082 0.360741 19.3156 0.318478C19.2231 0.276215 19.1229 0.253161 19.0211 0.250707C18.9194 0.248254 18.8182 0.266452 18.7237 0.304203C18.6292 0.341954 18.5434 0.398473 18.4713 0.470346L17.8915 1.04738C17.8212 1.1177 17.7817 1.21304 17.7817 1.31246C17.7817 1.41187 17.8212 1.50721 17.8915 1.57753L18.423 2.10816C18.4579 2.14317 18.4993 2.17094 18.5449 2.1899C18.5905 2.20885 18.6394 2.21861 18.6888 2.21861C18.7382 2.21861 18.7871 2.20885 18.8327 2.1899C18.8783 2.17094 18.9197 2.14317 18.9546 2.10816L19.5199 1.54566C19.8058 1.26019 19.8326 0.79519 19.5597 0.496596ZM16.7191 2.21925L8.25725 10.6661C8.20594 10.7172 8.16865 10.7807 8.14896 10.8503L7.75756 12.0161C7.74818 12.0478 7.74752 12.0813 7.75564 12.1133C7.76375 12.1453 7.78035 12.1745 7.80368 12.1978C7.82701 12.2211 7.85621 12.2377 7.88818 12.2459C7.92016 12.254 7.95374 12.2533 7.98537 12.2439L9.15021 11.8525C9.21989 11.8328 9.28334 11.7956 9.33443 11.7443L17.7813 3.28144C17.8595 3.20246 17.9033 3.09583 17.9033 2.98472C17.9033 2.87361 17.8595 2.76699 17.7813 2.688L17.3149 2.21925C17.2358 2.14039 17.1287 2.09611 17.017 2.09611C16.9053 2.09611 16.7982 2.14039 16.7191 2.21925Z" fill="#595959"/>
</svg>
