<svg width="89" height="98" viewBox="0 0 89 98" fill="none" xmlns="http://www.w3.org/2000/svg">
<path d="M35.3125 73.9194H53.6841V89.6747L44.4983 97.054L35.3125 89.6747V73.9194Z" fill="white"/>
<path fill-rule="evenodd" clip-rule="evenodd" d="M37.9424 3.75142C37.6823 3.93608 37.534 4.23698 37.534 4.55597V48.4671C37.534 48.7727 37.6713 49.0621 37.908 49.2553L43.9 54.1467C44.2745 54.4524 44.8124 54.4524 45.1869 54.1467L51.1789 49.2553C51.4156 49.0621 51.5529 48.7727 51.5529 48.4671V4.62044C51.5529 4.26581 51.3684 3.93635 51.0645 3.75355C50.2848 3.28453 49.5783 2.87558 48.8928 2.47875C47.6563 1.76292 46.4879 1.08655 45.0804 0.168176C44.7746 -0.0313454 44.3851 -0.0566105 44.0601 0.109948C41.2426 1.55432 39.0533 2.96278 37.9424 3.75142ZM28.9799 11.715C29.9849 11.341 31.0283 12.1031 31.0283 13.1754V23.2132C31.0283 23.8313 30.6673 24.39 30.1147 24.6669C19.5774 29.9465 12.3438 40.8454 12.3438 53.4338C12.3438 71.1931 26.7406 85.5899 44.5 85.5899C62.2594 85.5899 76.6562 71.1931 76.6562 53.4338C76.6562 40.846 69.4233 29.9475 58.8868 24.6676C58.3343 24.3907 57.9733 23.8321 57.9733 23.214V13.176C57.9733 12.1037 59.0167 11.3416 60.0217 11.7156C76.9449 18.0147 89 34.3164 89 53.4338C89 78.0104 69.0767 97.9338 44.5 97.9338C19.9233 97.9338 0 78.0104 0 53.4338C0 34.3158 12.0559 18.0136 28.9799 11.715Z" fill="url(#paint0_linear)"/>
<path fill-rule="evenodd" clip-rule="evenodd" d="M31.457 36.4356C31.457 35.1663 30.0534 34.4362 29.0976 35.2714C24.1517 39.5932 21.0273 45.9476 21.0273 53.0317C21.0273 66.0528 31.5831 76.6085 44.6042 76.6085C57.6253 76.6085 68.181 66.0528 68.181 53.0317C68.181 45.9879 65.0921 39.6656 60.195 35.3454C59.241 34.5037 57.8319 35.2327 57.8319 36.5049V51.8777C57.8319 52.3538 57.618 52.8047 57.2492 53.1058L45.647 62.577C45.0635 63.0532 44.2255 63.0532 43.642 62.577L32.0398 53.1058C31.671 52.8047 31.457 52.3538 31.457 51.8777V36.4356Z" fill="white"/>
<defs>
<linearGradient id="paint0_linear" x1="44.5" y1="22" x2="44.5" y2="97.9338" gradientUnits="userSpaceOnUse">
<stop stop-color="white"/>
<stop offset="1" stop-color="#D4D4D4"/>
</linearGradient>
</defs>
</svg>
