<svg width="26" height="26" viewBox="0 0 26 26" fill="none" xmlns="http://www.w3.org/2000/svg">
<path d="M24.5 25L19.0696 19.5599L24.5 25ZM22.0789 12.2895C22.0789 15.0184 20.9949 17.6356 19.0652 19.5652C17.1356 21.4949 14.5184 22.5789 11.7895 22.5789C9.06054 22.5789 6.44337 21.4949 4.51372 19.5652C2.58407 17.6356 1.5 15.0184 1.5 12.2895C1.5 9.56054 2.58407 6.94337 4.51372 5.01372C6.44337 3.08407 9.06054 2 11.7895 2C14.5184 2 17.1356 3.08407 19.0652 5.01372C20.9949 6.94337 22.0789 9.56054 22.0789 12.2895V12.2895Z" stroke="black" stroke-width="2.42105" stroke-linecap="round"/>
</svg>
