<svg width="47" height="85" viewBox="0 0 47 85" fill="none" xmlns="http://www.w3.org/2000/svg">
<path fill-rule="evenodd" clip-rule="evenodd" d="M26.5201 0.0531833C26.202 0.15455 25.8684 0.341799 21.4703 2.88749C17.5445 5.15994 12.0045 8.35841 11.4765 8.65735C11.2651 8.77706 10.2767 9.34638 9.28002 9.92262C8.28338 10.4989 6.70193 11.413 5.76569 11.9542C4.82945 12.4954 3.49511 13.2595 2.80048 13.6521C1.34818 14.4729 0.613029 15.1284 0.25314 15.9233L0 16.4825V44.8911V73.2996L0.227555 73.6045C0.366041 73.79 1.93475 74.7628 4.23608 76.0902C6.31558 77.2898 8.70894 78.6714 9.55457 79.1604C18.3988 84.2755 18.8918 84.5482 19.3837 84.5954C19.8504 84.6402 20.0091 84.5672 22.2391 83.2814C23.5377 82.5326 26.2806 80.9529 28.3342 79.771C30.3879 78.589 33.3284 76.8952 34.8687 76.007C36.409 75.1186 39.319 73.4455 41.3356 72.2888C45.1493 70.1014 45.6444 69.7411 46.0954 68.8257L46.3452 68.3188L46.3726 39.8748C46.3991 12.3909 46.3932 11.4196 46.1974 11.1012C46.0859 10.92 45.6781 10.5948 45.2913 10.3785C44.9045 10.1621 43.9208 9.59952 43.1054 9.12827C42.29 8.65691 39.6954 7.15805 37.3397 5.79746C33.1969 3.40464 32.2963 2.88353 28.985 0.962843C27.4042 0.0459339 27.0053 -0.101337 26.5201 0.0531833ZM28.2088 1.8657C28.8818 2.2526 30.3468 3.09933 31.4642 3.7474C32.5816 4.39546 33.9783 5.20321 34.5678 5.54245L35.6398 6.15921L36.9015 8.37082C37.5956 9.58711 38.1634 10.6504 38.1634 10.7335C38.1634 10.9153 33.224 13.786 33.0355 13.7137C32.9632 13.6859 32.4642 12.889 31.9271 11.9429C31.3898 10.9968 29.8602 8.32316 28.5279 6.00151C27.1955 3.67986 26.131 1.71392 26.1621 1.63276C26.2177 1.48769 26.7062 1.17535 26.891 1.16668C26.9428 1.16426 27.5358 1.47879 28.2088 1.8657ZM26.6732 3.42046C27.5073 4.89999 30.3058 9.78237 31.8143 12.3901C32.2943 13.2198 32.6573 13.9468 32.621 14.0056C32.5847 14.0644 32.1736 14.3293 31.7076 14.5941C31.2415 14.859 30.1249 15.4995 29.2263 16.0174C28.3278 16.5354 27.5371 16.9372 27.4692 16.9103C27.4013 16.8835 27.2044 16.6032 27.0315 16.2876C26.7208 15.7206 23.6594 10.4258 21.5634 6.83023C20.9686 5.80998 20.4819 4.937 20.4819 4.8901C20.4819 4.84321 21.4086 4.27455 22.5411 3.62648C23.6737 2.97831 24.8201 2.31004 25.0889 2.14146C25.3803 1.95849 25.6369 1.868 25.7248 1.9172C25.8058 1.96256 26.2326 2.63907 26.6732 3.42046ZM20.8288 6.18667C23.2677 10.4114 24.0151 11.7047 25.2244 13.7919C27.0501 16.9429 27.1041 17.043 27.0571 17.1833C26.9991 17.3563 22.0997 20.1411 21.9515 20.0854C21.8838 20.06 20.4506 17.6347 18.7666 14.6958C14.8298 7.82555 14.9997 8.1347 15.085 7.99655C15.1253 7.93142 15.7507 7.53551 16.4747 7.11687C17.1989 6.69822 18.2608 6.0797 18.8346 5.74233C19.4084 5.40495 19.9528 5.126 20.0443 5.12238C20.1425 5.11853 20.4639 5.55464 20.8288 6.18667ZM38.6868 7.91638C39.8473 8.5808 40.7974 9.18065 40.798 9.24929C40.7995 9.41458 38.8506 10.5191 38.6337 10.4759C38.4753 10.4444 36.4062 6.97739 36.4062 6.74347C36.4062 6.60246 36.2625 6.52855 38.6868 7.91638ZM15.5396 9.70099C15.9855 10.4711 16.7284 11.7684 17.1907 12.5838C17.6529 13.3993 18.8349 15.4679 19.8173 17.1809C21.3102 19.784 21.5789 20.3189 21.4545 20.439C21.3236 20.5653 18.8566 22.0286 18.7744 22.0286C18.7569 22.0286 18.2363 22.3275 17.6173 22.6929C16.701 23.234 16.4666 23.3308 16.3549 23.2146C16.2191 23.0732 15.7355 22.2535 12.9022 17.3611C12.0976 15.9719 10.9996 14.0802 10.462 13.1574C9.92446 12.2347 9.50076 11.3965 9.52031 11.295C9.55798 11.0994 14.2563 8.30987 14.5579 8.30405C14.6631 8.30207 15.0414 8.84031 15.5396 9.70099ZM43.6545 10.9021C43.6545 11.0705 43.5865 11.1152 41.5265 12.3017C40.6279 12.8193 39.8284 13.2428 39.7499 13.2428C39.5629 13.2428 38.8946 12.0715 38.9698 11.8755C39.0018 11.7921 39.7318 11.3256 40.5919 10.8388L42.1559 9.95359L42.9052 10.3584C43.3174 10.581 43.6545 10.8257 43.6545 10.9021ZM9.94203 12.8859C10.3832 13.6559 11.4183 15.4475 12.2423 16.8669C16.4799 24.1664 16.1437 23.5553 16.0013 23.6978C15.9018 23.7973 14.4694 23.0045 8.62108 19.6134C7.86605 19.1756 6.94431 18.6485 6.57278 18.4421C5.90275 18.0698 5.88913 18.0525 4.8948 16.2957C4.34349 15.3216 3.9065 14.4825 3.92363 14.4309C3.96295 14.3131 8.85171 11.4872 9.01776 11.4863C9.08497 11.4859 9.50087 12.1158 9.94203 12.8859ZM45.179 11.8542C45.2697 11.9634 45.2952 16.2985 45.2747 28.1144L45.2469 44.2256L43.7643 45.0792C42.9489 45.5485 41.1204 46.6012 39.7009 47.4184C36.2506 49.4047 27.9987 54.1653 23.4191 56.8115C21.3802 57.9897 19.6258 58.9604 19.5204 58.9688C19.339 58.9831 19.3288 58.1392 19.3288 43.0596V27.1353L19.5967 26.6677C19.9259 26.0928 20.2997 25.8376 23.5021 24.0022C24.8913 23.2059 27.3376 21.8005 28.9383 20.8791C31.8741 19.1889 37.1222 16.1728 42.1645 13.2775C43.6707 12.4127 44.9371 11.7053 44.9791 11.7053C45.021 11.7053 45.111 11.7722 45.179 11.8542ZM38.995 12.7994C39.1884 13.1293 39.3251 13.4506 39.2988 13.5133C39.235 13.6653 34.4695 16.3727 34.2658 16.3727C34.0821 16.3727 33.3312 15.2376 33.3986 15.062C33.4233 14.9976 34.1966 14.5122 35.117 13.9832C36.0375 13.4543 37.1118 12.8273 37.5044 12.59C37.8971 12.3528 38.314 12.1678 38.4308 12.179C38.5611 12.1916 38.7796 12.432 38.995 12.7994ZM3.76011 14.9725C3.87322 15.1385 4.22258 15.7256 4.53634 16.2771C5.06294 17.2025 5.19582 17.5259 5.04987 17.5259C5.01857 17.5259 4.32668 17.1465 3.51235 16.683C2.48122 16.0961 2.03172 15.7808 2.03172 15.6446C2.03172 15.458 3.12665 14.699 3.42449 14.6791C3.49588 14.6743 3.64688 14.8064 3.76011 14.9725ZM33.4375 15.8897C33.6272 16.1979 33.7673 16.5265 33.7489 16.6199C33.7151 16.7922 28.9202 19.6125 28.661 19.6125C28.4485 19.6125 27.7932 18.3927 27.9092 18.2131C28.0375 18.0147 32.6778 15.3452 32.9099 15.3363C33.0157 15.3324 33.2382 15.5657 33.4375 15.8897ZM2.74557 17.5721L3.95362 18.2706L5.27347 20.5615C5.99939 21.8214 7.35779 24.1866 8.29205 25.8175C9.22632 27.4483 10.0263 28.8089 10.0696 28.841C10.113 28.8731 10.3719 29.3261 10.6448 29.8478C10.9177 30.3695 11.3615 31.1588 11.631 31.6016C11.9004 32.0445 12.3292 32.7775 12.584 33.2305C12.8387 33.6835 13.1101 34.1283 13.1871 34.2189C13.2639 34.3095 13.4712 34.6554 13.6474 34.9877C13.8237 35.3199 14.2038 36.0365 14.492 36.5801C14.7803 37.1237 15.0599 37.6154 15.1132 37.6728C15.2448 37.8141 15.24 43.1145 15.1084 43.1145C14.9872 43.1145 14.3319 42.1686 14.3319 41.9937C14.3319 41.9269 14.2202 41.7193 14.0838 41.5324C13.9473 41.3455 13.7175 40.9702 13.5732 40.6984C13.4289 40.4266 13.2441 40.1263 13.1624 40.0308C13.0808 39.9355 13.014 39.8206 13.014 39.7755C13.014 39.6562 12.1837 38.245 11.5682 37.3181C11.2762 36.8784 11.0372 36.4697 11.0372 36.41C11.0372 36.2773 8.6895 32.1939 7.29662 29.9038C7.1421 29.6496 6.89642 29.2192 6.75069 28.9474C6.60495 28.6756 5.98588 27.5884 5.37483 26.5313C4.76378 25.4743 3.56396 23.3958 2.70845 21.9124L1.15314 19.2153V18.0411C1.15314 16.9948 1.17411 16.8673 1.34533 16.8703C1.45098 16.8722 2.08114 17.1879 2.74557 17.5721ZM27.9147 19.1529C28.1069 19.5028 28.2305 19.8399 28.1893 19.9022C28.0783 20.0703 23.2887 22.7977 23.108 22.7955C22.9202 22.7933 22.2326 21.5558 22.3329 21.4003C22.4427 21.2297 27.2127 18.514 27.3999 18.5156C27.4909 18.5162 27.7227 18.8031 27.9147 19.1529ZM6.91883 19.9878C7.88527 20.5492 8.83359 21.0894 9.0261 21.1883C9.27266 21.3151 9.55161 21.6687 9.96959 22.3849C11.0865 24.2981 13.8374 29.0503 14.005 29.356C14.0972 29.5239 14.406 30.0743 14.6914 30.5792L15.2104 31.4971V34.1758C15.2104 35.8514 15.1701 36.8546 15.1028 36.8546C15.0437 36.8546 14.8888 36.6446 14.7586 36.3879C14.6285 36.1312 14.4859 35.8964 14.4418 35.8662C14.3313 35.7906 13.5644 34.461 12.6684 32.7912C12.1198 31.7692 11.2187 30.2199 11.1351 30.1555C11.096 30.1253 10.8545 29.7052 10.5984 29.222C10.3424 28.7388 9.67494 27.5527 9.11518 26.5862C6.4087 21.9137 4.77729 19.0355 4.77729 18.9331C4.77729 18.7639 5.00319 18.8751 6.91883 19.9878ZM3.67752 24.2366C4.91665 26.3777 6.1594 28.4988 6.43934 28.9503C6.71928 29.4018 7.07291 30.0182 7.22523 30.3202C7.60214 31.0674 10.3726 35.8364 10.681 36.2686C10.8173 36.4597 11.1172 36.9785 11.3475 37.4218C12.0231 38.7216 12.6101 39.7542 12.7624 39.91C12.8404 39.9899 12.9042 40.1021 12.9042 40.1593C12.9042 40.2166 13.0388 40.4725 13.2034 40.7281C13.3681 40.9835 13.5827 41.3656 13.6803 41.577C13.7779 41.7884 13.9397 42.0293 14.0399 42.1121C14.1401 42.195 14.2226 42.3185 14.2232 42.3866C14.2239 42.4548 14.4457 42.8812 14.7162 43.3342L15.2079 44.1579L15.2092 46.876C15.2099 48.3709 15.1674 49.5941 15.1147 49.5941C15.0621 49.5941 14.0172 47.8521 12.7928 45.7228C11.5684 43.5936 10.4896 41.728 10.3955 41.577C10.3015 41.426 10.1161 41.1048 9.98376 40.8632C9.47858 39.9411 8.06604 37.5409 7.66617 36.9249C7.13331 36.1042 7.24083 36.2895 6.22343 34.4385C5.74197 33.5627 4.81858 31.9318 4.17139 30.8144C3.5241 29.697 2.58028 28.0626 2.07389 27.1825L1.15314 25.5821V22.9176C1.15314 20.851 1.18356 20.2633 1.28888 20.2983C1.36356 20.3233 2.4384 22.0955 3.67752 24.2366ZM22.3511 22.307C22.5424 22.6413 22.6743 22.9789 22.6443 23.0571C22.6144 23.1353 21.9186 23.5809 21.0983 24.0473C20.278 24.5137 19.463 25.0163 19.2872 25.1641C19.1114 25.3121 18.9086 25.4331 18.8366 25.4331C18.667 25.4331 17.3201 24.6807 17.2307 24.5361C17.1932 24.4752 17.219 24.368 17.2882 24.2979C17.5143 24.0682 21.6302 21.7143 21.8192 21.7066C21.9315 21.7021 22.1392 21.9364 22.3511 22.307ZM12.3196 23.0909C13.3358 23.6752 14.3563 24.262 14.5876 24.395C14.8188 24.528 15.0659 24.7542 15.1367 24.8977C15.2867 25.2017 15.2593 30.4849 15.1079 30.4849C15.0576 30.4849 14.6988 29.929 14.3104 29.2494C13.9222 28.57 12.854 26.7213 11.9365 25.1413C11.0191 23.5614 10.2684 22.2147 10.2684 22.1486C10.2684 22.0826 10.3142 22.0286 10.3702 22.0286C10.4263 22.0286 11.3035 22.5066 12.3196 23.0909ZM17.4564 26.0713L18.1101 26.4764L18.1154 29.3042C18.1188 31.0925 18.0814 32.1191 18.0138 32.0966C17.8886 32.0548 17.4415 31.313 16.8441 30.1555L16.4189 29.3318L16.4187 27.4923C16.4185 25.3596 16.3841 25.4066 17.4564 26.0713ZM32.5986 26.6822C31.8535 27.0367 31.2198 27.7042 30.78 28.5977C30.4665 29.2346 30.4236 29.4296 30.4223 30.2237C30.421 31.0355 30.4484 31.1554 30.6954 31.4199C31.1509 31.9076 31.5444 32.0563 32.2006 31.9885C33.5893 31.8452 34.8 30.259 34.9395 28.4C34.9813 27.8438 34.9488 27.6005 34.7937 27.3079C34.3499 26.4705 33.5329 26.2375 32.5986 26.6822ZM1.76606 27.3084C4.03675 31.2523 5.17891 33.2125 5.9715 34.5262C6.4925 35.3899 7.09411 36.4278 7.30826 36.8325C7.52242 37.2373 8.06604 38.2015 8.51631 38.9751C8.96658 39.7488 9.43794 40.5642 9.56391 40.7872C9.93852 41.4504 11.7661 44.6193 13.5454 47.691L15.2104 50.565V53.2736C15.2104 55.1772 15.175 55.9703 15.0908 55.9423C15.0252 55.9203 13.414 53.2104 11.5104 49.9202C9.60696 46.6302 7.85793 43.617 7.62367 43.2244C7.38942 42.8317 7.09487 42.2891 6.96901 42.0185C6.84316 41.7479 6.70423 41.5008 6.66008 41.4694C6.61605 41.438 6.35555 41.0169 6.08132 40.5337C5.18726 38.9586 3.45601 35.9626 2.29244 33.9766L1.15314 32.0322V29.3275C1.15314 26.3329 1.17082 26.2746 1.76606 27.3084ZM33.7756 27.9176C34.0168 28.5521 33.5393 29.7246 32.7395 30.4619C31.9784 31.1633 31.574 31.0555 31.574 30.1511C31.574 28.7396 33.3884 26.8991 33.7756 27.9176ZM17.3105 31.5033L18.0377 32.8461L18.1003 35.2622C18.1606 37.5911 18.1289 38.2823 17.9617 38.2823C17.8669 38.2823 17.3768 37.527 16.7618 36.4329L16.3087 35.6269V32.9644C16.3087 30.5148 16.336 30.1507 16.5192 30.158C16.5543 30.1594 16.9105 30.7649 17.3105 31.5033ZM41.8058 30.8799C41.6216 31.0089 41.5644 31.1423 41.5892 31.3852C41.6183 31.6708 41.7262 31.7694 42.3916 32.1179L43.1603 32.5206L43.1889 37.3783C43.2205 42.7394 43.272 42.3862 42.5043 42.0654C42.1345 41.9109 42.0714 41.9111 41.832 42.0679C41.518 42.2737 41.4858 42.6768 41.7636 42.9281C41.9891 43.1322 43.597 43.8833 43.8083 43.8833C43.8862 43.8833 44.0322 43.7925 44.1327 43.6813C44.2991 43.4975 44.3129 42.955 44.287 37.6136L44.2585 31.7479L43.2152 31.2306C42.6414 30.9461 42.1459 30.7113 42.114 30.709C42.0821 30.7066 41.9435 30.7834 41.8058 30.8799ZM2.20118 34.4469C4.25629 38.05 6.04871 41.1372 6.38366 41.6505C6.58739 41.9628 6.75409 42.2501 6.75409 42.2891C6.75409 42.3281 7.09367 42.9375 7.50858 43.6433C7.9236 44.3492 9.11781 46.4092 10.1624 48.2213C11.2071 50.0334 12.2192 51.7878 12.4116 52.12C12.604 52.4522 13.3125 53.6766 13.9859 54.841L15.2104 56.9578V59.6548C15.2104 62.6408 15.1923 62.7004 14.5984 61.6662C13.9238 60.4912 9.98321 53.6671 8.67379 51.4061C7.93919 50.1377 6.59551 47.8149 5.68783 46.2445C4.78014 44.674 3.38847 42.2691 2.59533 40.9003L1.15314 38.4115V35.7021C1.15314 33.6086 1.18378 33.0027 1.288 33.0375C1.36224 33.0622 1.7732 33.6965 2.20118 34.4469ZM16.8292 37.0468C16.9325 37.2734 17.249 37.8787 17.5326 38.3922C18.1229 39.4605 18.1103 39.3633 18.0833 42.6478C18.0734 43.8382 18.022 44.7619 17.9655 44.7619C17.9103 44.7619 17.6074 44.28 17.2923 43.6911C16.9774 43.1022 16.6527 42.5432 16.5709 42.4489C16.4079 42.2613 16.3766 41.5218 16.4028 38.4745C16.4127 37.3122 16.4596 36.635 16.5301 36.635C16.5915 36.635 16.7261 36.8204 16.8292 37.0468ZM3.62415 43.3055C4.8322 45.4013 6.31975 47.9823 6.92992 49.0413C8.8975 52.4568 11.7063 57.3122 12.237 58.2152C12.5209 58.6984 13.3061 60.0592 13.9819 61.2392L15.2104 63.3848V66.0989C15.2104 67.6938 15.1685 68.813 15.1085 68.813C14.9945 68.813 14.7236 68.3743 13.1754 65.6831C12.5847 64.6562 11.6466 63.0254 11.0908 62.0589C10.5348 61.0925 9.33987 59.0169 8.43504 57.4464C5.92208 53.0843 3.0992 48.1802 2.07488 46.3972L1.15314 44.793V42.1416C1.15314 40.0925 1.18433 39.4909 1.29042 39.4928C1.36597 39.4941 2.4161 41.2099 3.62415 43.3055ZM17.3731 44.4948L18.0531 45.6954L18.0595 48.4135C18.063 49.9222 18.0226 51.1316 17.9686 51.1316C17.9152 51.1316 17.5445 50.5451 17.145 49.8282L16.4185 48.525V45.8655C16.4185 43.7876 16.4485 43.2157 16.5558 43.2502C16.6313 43.2743 16.999 43.8344 17.3731 44.4948ZM45.2749 56.6217C45.3062 68.7034 45.335 68.204 44.5653 68.9354C44.3362 69.1532 43.6051 69.6412 42.9407 70.02C41.5538 70.8106 37.2203 73.301 35.1982 74.4696C34.4431 74.9059 32.8123 75.8461 31.574 76.5589C30.3358 77.2718 27.5682 78.8656 25.424 80.1005C23.2797 81.3356 21.0931 82.5929 20.565 82.8947C20.029 83.2009 19.5313 83.4153 19.4387 83.3798C19.292 83.3235 19.2761 82.0024 19.3008 71.9307L19.3288 60.5453L21.2507 59.4252C23.0338 58.3859 30.3022 54.1887 34.3745 51.8466C36.0546 50.8804 38.0106 49.7532 41.2384 47.8913C42.0538 47.4208 43.2152 46.7476 43.8192 46.395C44.4233 46.0424 44.9916 45.7662 45.0822 45.7811C45.2271 45.805 45.2503 47.1095 45.2749 56.6217ZM2.37206 47.5697C4.24607 50.8244 7.08971 55.7584 9.07695 59.2036C10.1919 61.1364 12.028 64.3283 13.1573 66.2966L15.2104 69.8752V72.5839C15.2104 74.0737 15.1675 75.2926 15.1151 75.2926C15.0627 75.2926 14.2769 73.9954 13.369 72.4097C12.4611 70.8242 11.0058 68.2914 10.1349 66.7813C9.26398 65.2713 7.96708 63.0226 7.25291 61.7844C6.53862 60.5461 4.98847 57.8527 3.8081 55.7991C2.62762 53.7454 1.54795 51.8674 1.40881 51.6258C1.16379 51.2003 1.15578 51.1025 1.15446 48.5142C1.15347 46.4256 1.18312 45.8514 1.29042 45.8858C1.36597 45.91 1.8526 46.6677 2.37206 47.5697ZM41.8116 49.1064C41.6553 49.2158 41.5679 49.3911 41.5679 49.595C41.5679 49.878 41.6552 49.9586 42.3641 50.33L43.1603 50.7472L43.1889 55.6199L43.2175 60.4925L42.9692 60.4358C42.8327 60.4045 42.5629 60.3146 42.3696 60.236C42.059 60.1097 41.992 60.1167 41.793 60.2968C41.5172 60.5465 41.5024 60.9259 41.7601 61.1451C41.9952 61.3452 43.6246 62.1139 43.8136 62.1139C43.8885 62.1139 44.0322 62.023 44.1327 61.9119C44.2991 61.7281 44.3129 61.1855 44.287 55.8442L44.2585 49.9785L43.38 49.5247C42.2427 48.9372 42.1054 48.9007 41.8116 49.1064ZM17.3742 50.9006L18.0658 52.1373V54.8193C18.0658 56.2968 18.0223 57.5013 17.9689 57.5013C17.9156 57.5013 17.5449 56.9229 17.1452 56.2159L16.4185 54.9305V52.2531C16.4185 50.217 16.4501 49.5863 16.5505 49.6198C16.6231 49.6439 16.9937 50.2204 17.3742 50.9006ZM2.12386 53.5202C2.82288 54.7081 4.95531 58.4124 8.01914 63.7612C9.52931 66.3976 11.3101 69.4937 13.5232 73.3307L15.2104 76.2558V78.5747C15.2104 80.775 15.1998 80.8935 15.003 80.8935C14.6405 80.8935 14.3861 80.5555 13.2266 78.5323C11.5326 75.5769 5.30531 64.7983 3.04285 60.9058C2.46365 59.9092 1.80142 58.7616 1.57134 58.3558L1.15314 57.6178V54.9239C1.15314 53.2724 1.19399 52.2298 1.25878 52.2298C1.31688 52.2298 1.70609 52.8106 2.12386 53.5202ZM17.371 57.2731C18.0375 58.4642 18.222 59.0465 17.9286 59.0321C17.8531 59.0284 17.4948 58.842 17.1323 58.6179L16.4734 58.2103L16.442 57.0766C16.4185 56.2276 16.444 55.954 16.5434 55.9871C16.6164 56.0114 16.9888 56.5902 17.371 57.2731ZM1.5697 58.9779C1.63702 59.1256 2.40534 60.4723 3.27722 61.9705C8.1361 70.3208 13.6729 79.9361 13.6729 80.0238C13.6729 80.0793 13.6359 80.1226 13.5906 80.1199C13.5452 80.1172 12.4738 79.5119 11.2094 78.7746L8.91057 77.4341L8.39836 76.5555C8.11666 76.0723 7.23105 74.5403 6.43034 73.151C5.62962 71.7618 4.11473 69.1399 3.06383 67.3245L1.15314 64.0239V61.3666C1.15314 59.2194 1.18136 58.7094 1.30019 58.7094C1.38113 58.7094 1.50238 58.8302 1.5697 58.9779ZM17.2284 60.029C18.1818 60.567 18.1874 60.5794 18.1518 62.0446C18.1337 62.788 18.0748 63.3297 18.0109 63.3395C17.9505 63.3487 17.5707 62.7679 17.1669 62.0486C16.558 60.9639 16.4316 60.6521 16.4256 60.2194C16.4217 59.9326 16.4687 59.6978 16.53 59.6978C16.5912 59.6978 16.9056 59.8468 17.2284 60.029ZM17.4312 63.166L18.1693 64.475L18.145 67.1108C18.1295 68.7864 18.0808 69.7431 18.0109 69.7371C17.9505 69.7319 17.5693 69.1389 17.1637 68.4192L16.4265 67.1108L16.4224 64.4385C16.4194 62.3482 16.4484 61.7759 16.5558 61.8115C16.6313 61.8364 17.0252 62.446 17.4312 63.166ZM1.92981 65.9866C2.2059 66.4841 3.70092 69.0818 5.25194 71.7593C6.80297 74.4367 8.07197 76.6729 8.07197 76.7287C8.07197 76.7845 8.01958 76.8301 7.95555 76.8301C7.81158 76.8301 3.69597 74.4587 3.43559 74.2258C3.33191 74.1331 2.77599 73.2246 2.20008 72.2071L1.15314 70.3571V67.7181C1.15314 65.6793 1.18433 65.0794 1.29042 65.0806C1.36597 65.0815 1.6536 65.4891 1.92981 65.9866ZM17.4048 69.4804L18.1207 70.7349L18.1551 73.453C18.1829 75.6427 18.1615 76.1707 18.0453 76.1687C17.966 76.1674 17.5675 75.5658 17.1598 74.8319L16.4185 73.4974V70.8166C16.4185 68.7431 16.4491 68.146 16.5537 68.1809C16.628 68.2056 17.011 68.7904 17.4048 69.4804ZM2.00943 72.5088C2.32934 73.0879 2.56183 73.591 2.52592 73.6269C2.49012 73.6628 2.17888 73.5362 1.83437 73.3455L1.20805 72.999L1.17576 72.2239C1.15171 71.645 1.17949 71.4497 1.28558 71.4523C1.36378 71.4543 1.68951 71.9297 2.00943 72.5088ZM17.034 75.2651C17.2578 75.6728 17.6061 76.2847 17.8082 76.6248L18.1757 77.2432V79.8921C18.1757 81.9991 18.1463 82.5409 18.0321 82.5409C17.9533 82.5409 17.5579 81.9468 17.1535 81.2207L16.4185 79.9006V77.2122C16.4185 75.5854 16.4598 74.5238 16.5229 74.5238C16.5804 74.5238 16.8104 74.8575 17.034 75.2651ZM16.9386 81.4725C17.2607 82.0582 17.2044 82.2285 16.7692 81.9854C16.5307 81.8521 16.4667 81.728 16.439 81.3453C16.3953 80.74 16.5587 80.7816 16.9386 81.4725Z" fill="#57C2DE"/>
</svg>
