<svg width="61" height="81" viewBox="0 0 61 81" fill="none" xmlns="http://www.w3.org/2000/svg">
<path fill-rule="evenodd" clip-rule="evenodd" d="M34.9902 0.0409627C34.6689 0.115086 33.9921 0.488849 29.8851 2.85966C29.1119 3.30597 26.9354 4.55853 25.0486 5.64292C23.1618 6.72732 20.7829 8.0964 19.7621 8.68533C18.7414 9.27416 17.4507 10.0181 16.894 10.3385C16.3372 10.6589 13.3509 12.3793 10.2578 14.1619C7.16463 15.9443 4.0265 17.7472 3.28414 18.1683C1.73544 19.0468 1.05877 19.6545 0.517301 20.6531L0.134764 21.3586L0.0493961 43.5388C-0.0314755 64.5381 -0.0255142 65.7507 0.161874 66.3131C0.39909 67.0255 0.244879 66.9153 4.18397 69.1837C5.7924 70.1099 7.89292 71.3229 8.8518 71.8791C10.6321 72.9118 15.6461 75.8113 19.481 78.0258C24.3169 80.8185 24.2876 80.8031 24.7753 80.8031C25.3859 80.8031 24.9755 81.0264 34.328 75.6059C35.8746 74.7096 38.1523 73.3935 39.3895 72.6813C41.5535 71.4357 47.9865 67.7233 51.1435 65.8984C51.9786 65.4156 53.9273 64.294 55.4739 63.4061C58.6447 61.5856 59.3021 61.0416 59.808 59.8208L60.0854 59.1511L60.12 37.1617C60.1445 21.5375 60.1187 15.0063 60.0313 14.5987C59.9521 14.2294 59.7995 13.9238 59.6031 13.7405C59.4353 13.584 56.6661 11.9488 53.4493 10.1067C50.2324 8.26467 45.0697 5.30571 41.9765 3.53126C38.8834 1.75681 36.2514 0.25321 36.1277 0.189997C35.7685 0.00654581 35.3672 -0.0460952 34.9902 0.0409627ZM36.0332 1.50374C36.3523 1.68674 36.7103 1.97738 36.8286 2.14947C37.2496 2.7618 38.8834 5.6346 38.8834 5.7626C38.8834 5.85191 38.556 5.89296 37.843 5.8933C36.5831 5.89386 35.1009 6.12264 33.8189 6.51429C33.2947 6.67457 32.7595 6.83237 32.6296 6.86522C32.4248 6.91696 32.2862 6.73159 31.5892 5.4733C31.1468 4.67494 30.7854 3.94923 30.7859 3.8606C30.7867 3.71033 35.088 1.16979 35.3403 1.17058C35.4022 1.17069 35.714 1.32062 36.0332 1.50374ZM40.8661 4.27283C42.6522 5.29953 44.9683 6.62823 46.013 7.22537C47.1551 7.8783 48.0132 8.44564 48.1654 8.64855C48.3045 8.83414 48.8472 9.74521 49.3715 10.6732C49.8957 11.6011 50.8322 13.2441 51.4526 14.3242C52.0729 15.4043 52.5599 16.3416 52.5348 16.4069C52.4629 16.5943 47.6534 19.334 47.3963 19.334C47.2177 19.334 46.9432 18.9529 46.181 17.6468C45.6396 16.7188 45.1935 15.8837 45.1898 15.7909C45.1861 15.6981 45.461 15.4075 45.8008 15.145C46.6005 14.5274 47.3854 13.4543 47.6149 12.6644C48.1829 10.7106 46.9438 8.55981 44.5377 7.32312C43.1362 6.6027 42.1213 6.30396 39.8722 5.9501C39.3917 5.8744 39.3569 5.83099 38.2851 3.96779C37.6181 2.80826 37.4356 2.40603 37.5762 2.40603C37.5994 2.40603 39.08 3.24613 40.8661 4.27283ZM30.853 4.85243C31.0821 5.26995 31.4389 5.89667 31.6459 6.24502C31.8528 6.59336 32.0222 6.94845 32.0222 7.03416C32.0222 7.11987 31.7311 7.36327 31.3755 7.57507C31.0198 7.78686 30.4383 8.23599 30.0834 8.57308C26.6719 11.814 29.3316 16.0512 35.4933 17.1916C36.0106 17.2873 36.7745 17.3656 37.1911 17.3656C38.0857 17.3656 38.0188 17.3062 38.9654 18.9403C40.7767 22.0669 41.1329 22.7164 41.1329 22.8919C41.1329 23.0204 40.33 23.5453 38.6339 24.5257C37.2595 25.3201 36.0786 25.9849 36.0097 26.0029C35.9407 26.0209 35.6288 25.5906 35.3166 25.0468C35.0043 24.503 34.0031 22.7673 33.0914 21.1898C32.1799 19.6123 30.8645 17.3347 30.1684 16.1283C29.4722 14.922 28.6375 13.4795 28.3136 12.9227C26.1411 9.18845 25.0406 7.21019 25.0764 7.10288C25.1306 6.94024 29.9967 4.11615 30.2452 4.10321C30.37 4.09669 30.5814 4.35719 30.853 4.85243ZM40.046 7.23685C40.0976 7.28769 39.8412 7.8539 39.4762 8.49513C37.5666 11.85 35.3587 15.6389 35.2413 15.7624C35.1352 15.874 34.9486 15.8583 34.3244 15.6848C33.3067 15.4021 32.4715 15.0285 32.4748 14.8577C32.4763 14.7832 33.4529 13.0269 34.645 10.9546C36.5822 7.58722 36.8479 7.17847 37.1449 7.1084C37.566 7.00897 39.9203 7.11323 40.046 7.23685ZM36.2964 7.33211C36.2964 7.38138 35.6589 8.53293 34.8796 9.89098C34.1005 11.2492 33.3482 12.5628 33.208 12.8102C32.4446 14.1572 32.1101 14.666 31.9887 14.665C31.8578 14.664 31.1074 14.1095 30.7727 13.7663C30.3119 13.2939 29.9758 12.7371 30.0289 12.5341C30.0606 12.4129 30.6076 11.4188 31.2443 10.3249L32.4022 8.3362L33.0237 8.06131C34.2281 7.52861 36.2964 7.06779 36.2964 7.33211ZM41.3979 7.41512C42.483 7.68597 43.3825 8.04365 43.3825 8.20416C43.3825 8.35443 39.1477 15.7536 38.8707 16.0875C38.7384 16.2468 38.548 16.2621 37.4787 16.1992C36.0255 16.1138 35.734 16.05 35.734 15.818C35.734 15.7235 36.0294 15.1347 36.3903 14.5094C36.7514 13.8842 37.6442 12.335 38.3744 11.0668C39.1047 9.79864 39.8998 8.41932 40.1413 8.00181C40.3828 7.58429 40.6089 7.24258 40.6437 7.24258C40.6784 7.24258 41.0177 7.32019 41.3979 7.41512ZM25.9842 9.5486C27.1853 11.6355 28.2747 13.5204 31.1845 18.5466C31.9724 19.9076 33.1986 22.0334 33.9093 23.2707C34.62 24.5079 35.2707 25.6201 35.3553 25.7422C35.6768 26.2059 35.5662 26.3033 33.1751 27.6633C31.8915 28.3935 30.7614 29.0578 30.6636 29.1395C30.3071 29.4382 30.3318 29.4708 28.4986 26.2977C28.2096 25.7974 27.973 25.3528 27.973 25.3097C27.973 25.2666 28.3015 24.9241 28.7028 24.5486C29.2048 24.0791 29.5471 23.6333 29.7994 23.121C30.1266 22.4566 30.1663 22.2724 30.1663 21.4174C30.1663 20.6144 30.1178 20.3551 29.8672 19.8204C28.9843 17.9372 26.3351 16.314 23.4591 15.8942C22.9413 15.8186 22.4581 15.7011 22.3851 15.6332C22.1145 15.3813 19.4158 10.5773 19.4488 10.4061C19.4677 10.3084 20.0899 9.88086 20.8317 9.45603C21.5735 9.03131 22.6866 8.38468 23.3052 8.01913C23.9238 7.65357 24.503 7.36743 24.5922 7.38318C24.6814 7.39893 25.3078 8.37344 25.9842 9.5486ZM44.7251 8.81244C45.2853 9.19283 46.082 10.0094 46.082 10.2032C46.082 10.332 43.2477 15.0718 43.0534 15.2682C42.8195 15.5043 41.174 15.9619 40.1367 16.0792C39.5504 16.1455 39.4458 16.1306 39.4458 15.9806C39.4458 15.8835 39.7811 15.2315 40.1908 14.532C40.6006 13.8324 41.5176 12.2478 42.2287 11.0106C43.5249 8.7553 43.7802 8.36736 43.9685 8.36736C44.0242 8.36736 44.3646 8.56768 44.7251 8.81244ZM31.5524 9.07102C31.4624 9.42049 30.039 11.7381 29.9133 11.7398C29.705 11.7426 29.7462 11.1922 29.9954 10.6432C30.3263 9.91427 31.6899 8.53743 31.5524 9.07102ZM51.1659 10.179C52.3599 10.8662 54.187 11.9104 55.2262 12.4996C56.4544 13.1959 57.1039 13.6269 57.0821 13.7312C57.046 13.904 53.2722 16.1283 53.0151 16.1283C52.9298 16.1283 52.452 15.407 51.9534 14.5255C51.4548 13.644 50.5624 12.0877 49.9704 11.0671C49.0093 9.41037 48.7786 8.92975 48.9445 8.92975C48.9724 8.92975 49.972 9.49191 51.1659 10.179ZM19.2662 11.0387C19.8057 11.825 21.7867 15.3387 21.7867 15.509C21.7867 15.6503 21.5662 15.6784 20.4568 15.6784C18.9982 15.6784 17.5189 15.8926 16.23 16.2902C15.7711 16.4318 15.3468 16.5166 15.2873 16.4786C15.1237 16.3741 13.6769 13.7446 13.7169 13.6245C13.7527 13.5172 18.7375 10.6214 18.8916 10.6185C18.9385 10.6176 19.1072 10.8068 19.2662 11.0387ZM46.5294 11.6148C46.5252 12.6886 46.0148 13.5147 44.8056 14.4048C44.1275 14.904 43.7549 15.0302 43.8738 14.7204C43.9098 14.6266 44.4504 13.687 45.0749 12.6325C46.0181 11.0403 46.2379 10.7379 46.3713 10.8486C46.4763 10.9357 46.531 11.2011 46.5294 11.6148ZM13.6102 14.3006C14.2281 15.2951 14.9058 16.6519 14.8343 16.7516C14.7917 16.8108 14.5291 16.9806 14.2507 17.1287C13.4543 17.5525 12.5648 18.2715 12.0791 18.884C11.3969 19.7443 11.183 20.3195 11.1694 21.3301C11.1629 21.8094 11.1153 22.1875 11.0634 22.1704C10.9098 22.1197 8.06355 17.0981 8.09336 16.9301C8.12103 16.7736 12.9526 13.8981 13.2088 13.8856C13.2854 13.8818 13.466 14.0686 13.6102 14.3006ZM58.8778 18.4536L58.9074 22.2972L58.5966 22.5112C58.3092 22.7091 57.1898 23.3566 50.0749 27.4411C48.6521 28.2579 47.3108 29.0397 47.0943 29.1782C46.3854 29.632 42.7833 31.7247 41.9203 32.1841C41.4563 32.4311 40.6971 32.8626 40.2331 33.143C38.8375 33.9863 36.7298 35.2078 36.0714 35.5551C35.3248 35.9487 32.1233 37.7735 31.5723 38.1193C31.3558 38.2553 30.7484 38.6095 30.2226 38.9067C29.6967 39.2037 29.0134 39.6077 28.7041 39.8044C28.3948 40.0011 28.0658 40.19 27.973 40.2243C27.8802 40.2588 27.0969 40.6972 26.2322 41.1987C25.3676 41.7003 24.5958 42.1107 24.5169 42.1107C24.4041 42.1107 24.3737 41.3824 24.3737 38.6765C24.3737 34.932 24.3855 34.8504 25.0318 34.1248C25.2246 33.9083 25.3832 33.6979 25.3842 33.6573C25.3867 33.5551 27.9251 32.0157 29.154 31.3711C29.7108 31.0791 30.2676 30.75 30.3913 30.6399C30.515 30.5297 31.0465 30.211 31.5723 29.9317C32.0981 29.6523 33.4901 28.8693 34.6655 28.1915C35.8409 27.5137 37.4858 26.5649 38.321 26.0832C39.1561 25.6014 40.6746 24.7261 41.6953 24.1381C42.7161 23.5502 44.7922 22.349 46.3089 21.469C47.8257 20.589 50.4324 19.0828 52.1015 18.1219C53.7707 17.1611 55.845 15.9638 56.7111 15.4612C57.7543 14.8559 58.3807 14.558 58.567 14.5786L58.8482 14.6099L58.8778 18.4536ZM45.8798 17.7593C46.421 18.6872 46.8646 19.5224 46.8656 19.6151C46.8666 19.7079 46.6781 19.8888 46.4466 20.0171C45.6291 20.4702 42.2645 22.4175 42.0023 22.5893C41.7878 22.7298 41.7026 22.7364 41.5598 22.6234C41.3057 22.4223 38.6584 17.8094 38.6584 17.5677C38.6584 17.3979 38.7565 17.3656 39.2731 17.3656C40.4438 17.3656 43.2384 16.6886 44.1566 16.1827C44.7241 15.8699 44.8393 15.9752 45.8798 17.7593ZM22.6001 17.0091C22.666 17.0751 22.3288 17.7645 21.7031 18.843C21.1516 19.7935 20.0773 21.6594 19.3156 22.9895C18.554 24.3195 17.8582 25.4667 17.7695 25.5388C17.645 25.6399 17.4366 25.6222 16.8574 25.4613C15.8884 25.192 15.0381 24.8133 15.0381 24.651C15.0381 24.5808 15.5269 23.6848 16.1244 22.6598C16.7218 21.6348 17.6669 20.0116 18.2245 19.0528C19.6639 16.5775 19.4228 16.763 21.1002 16.8396C21.8669 16.8747 22.5419 16.951 22.6001 17.0091ZM18.9216 17.0331C18.9615 17.0977 18.9453 17.2115 18.8856 17.2862C18.8259 17.3608 18.2083 18.4088 17.5129 19.6151C15.3601 23.3505 14.6907 24.4517 14.5732 24.4517C14.1491 24.4517 12.5636 22.882 12.5636 22.462C12.5636 22.2778 14.6222 18.5626 14.9067 18.2332C15.0022 18.1227 15.3113 17.9292 15.5935 17.8031C16.0699 17.5904 17.7674 17.1032 18.4124 16.994C18.5671 16.9678 18.7286 16.9394 18.7713 16.931C18.8141 16.9225 18.8817 16.9685 18.9216 17.0331ZM24.151 17.2581C25.4124 17.6027 25.9484 17.8273 25.9484 18.0114C25.9484 18.1023 25.6276 18.7155 25.2357 19.374C24.8436 20.0324 23.8234 21.7779 22.9687 23.2528C22.1138 24.7276 21.3401 25.9628 21.2491 25.9978C21.0057 26.0912 18.4104 25.8444 18.2816 25.7156C18.2099 25.644 18.2862 25.4145 18.5009 25.0568C18.6821 24.7549 19.4533 23.4197 20.2148 22.0897C22.3253 18.4032 23.1447 17.0282 23.2311 17.0282C23.2744 17.0282 23.6883 17.1316 24.151 17.2581ZM7.92734 17.5062C8.04758 17.7073 9.17168 19.6686 10.4252 21.8647C11.6788 24.0608 12.8499 26.0685 13.0276 26.3259C13.2055 26.5835 13.3509 26.824 13.3509 26.8602C13.3509 27.0222 12.955 26.8994 12.5257 26.6043C12.2682 26.4271 10.2606 25.2555 8.06445 24.0005C2.58014 20.8666 2.54292 20.8439 2.44315 20.5801C2.39444 20.4515 2.39625 20.2666 2.4472 20.1692C2.49804 20.0719 3.31462 19.5451 4.26169 18.9985C5.20875 18.452 6.31261 17.8107 6.71472 17.5733C7.11683 17.336 7.50499 17.1415 7.5772 17.1412C7.64952 17.1409 7.8071 17.3051 7.92734 17.5062ZM27.0829 18.4966C27.6594 18.8665 28.5354 19.7525 28.5354 19.9656C28.5354 20.085 26.4954 23.7178 25.8773 24.6993C25.6509 25.0586 25.4959 25.153 24.7414 25.3904C23.6448 25.7355 22.1488 25.9835 22.0087 25.8434C21.9458 25.7805 22.074 25.4544 22.3359 25.0115C22.5727 24.6108 23.5144 22.9923 24.4284 21.4148C25.9834 18.731 26.3488 18.1529 26.4902 18.1529C26.5217 18.1529 26.7883 18.3076 27.0829 18.4966ZM14.1383 18.7863C14.1383 18.9474 12.5384 21.6397 12.4426 21.6397C12.263 21.6397 12.3341 20.8169 12.556 20.3281C12.8813 19.6119 14.1383 18.387 14.1383 18.7863ZM29.0334 21.3904C29.0259 22.4618 28.3076 23.528 27.019 24.3804C26.5473 24.6924 26.3983 24.74 26.3983 24.5787C26.3983 24.4447 28.4035 20.9577 28.6235 20.7091C28.8916 20.4061 29.0385 20.6502 29.0334 21.3904ZM3.18167 22.5677L4.80799 23.4956L6.06189 25.6889C6.75161 26.8953 8.26882 29.5384 9.43353 31.5625C11.3805 34.9461 11.6588 35.4745 11.4935 35.4745C11.4616 35.4745 10.3951 34.8797 9.12343 34.1529C7.43424 33.1874 6.75802 32.7404 6.61337 32.4939C6.34939 32.0437 5.82018 31.1282 3.84991 27.7135C2.93974 26.136 1.99717 24.5133 1.75535 24.1075C1.35605 23.4371 1.31578 23.2973 1.31578 22.5797C1.31578 21.8764 1.36482 21.6397 1.51059 21.6397C1.53522 21.6397 2.28725 22.0573 3.18167 22.5677ZM58.9044 41.2467C58.9044 56.3241 58.8824 58.6785 58.7363 59.1704C58.5371 59.8413 57.8633 60.6518 57.187 61.0344C56.6756 61.3237 52.7589 63.5798 49.2876 65.5846C48.1122 66.2635 42.6964 69.3914 37.2524 72.5357C31.8085 75.6799 26.8413 78.548 26.2141 78.9092C25.0432 79.5835 24.7198 79.6785 24.4996 79.4133C24.4067 79.3014 24.3806 74.5197 24.4015 61.4477L24.43 43.6346L25.6672 42.9276C26.3477 42.5389 27.2335 42.0337 27.6356 41.805C28.0377 41.5763 28.4336 41.3238 28.5153 41.2439C28.5971 41.1639 28.7068 41.0984 28.7591 41.0984C28.8114 41.0984 29.2395 40.8706 29.7104 40.5923C30.1812 40.3139 30.5983 40.0861 30.6369 40.0861C30.6758 40.0861 30.8734 39.9596 31.0762 39.8049C31.279 39.6503 31.4862 39.5234 31.5367 39.5229C31.5872 39.5225 32.0588 39.2444 32.5846 38.9051C33.1105 38.5658 33.578 38.2877 33.6236 38.2873C33.7264 38.2862 37.9058 35.9046 37.9836 35.8028C38.0532 35.7116 40.4151 34.3497 40.5037 34.3497C40.5391 34.3497 41.0113 34.0799 41.5534 33.7501C43.4403 32.602 45.088 31.6503 45.189 31.6503C45.2449 31.6503 45.6079 31.4567 45.9956 31.22C46.3834 30.9835 48.3709 29.8252 50.4124 28.6461C52.4538 27.4671 55.1364 25.9168 56.3737 25.201C57.6109 24.4853 58.6866 23.8974 58.7638 23.8945C58.8757 23.8903 58.9044 27.433 58.9044 41.2467ZM7.55032 25.0899C8.48265 25.6265 9.52385 26.223 9.8641 26.4154C10.5279 26.7909 10.4048 26.609 12.914 30.9192C13.2382 31.4759 13.621 32.1077 13.7646 32.3231C13.9082 32.5385 14.0258 32.7806 14.0258 32.861C14.0258 32.9414 14.2492 33.3473 14.5221 33.7628C14.7951 34.1784 15.166 34.7968 15.3462 35.1371C15.8172 36.0263 16.9339 37.9525 17.1855 38.3101C17.3036 38.4777 17.4001 38.6421 17.4001 38.6756C17.4001 38.8315 16.9039 38.7089 16.526 38.4598C16.2954 38.3076 15.2723 37.7059 14.2524 37.1225L12.3982 36.062L10.8885 33.4343C7.70699 27.8968 5.58994 24.1879 5.58994 24.1518C5.58994 24.008 6.06696 24.2362 7.55032 25.0899ZM2.23023 25.5494C2.64032 26.2757 3.44577 27.6798 4.0202 28.6696C4.59451 29.6594 5.2831 30.8489 5.55046 31.3128C5.8177 31.7768 5.9862 32.1734 5.9249 32.1942C5.81681 32.2308 2.02304 30.1004 1.51262 29.7164C1.26483 29.5301 1.25909 29.4742 1.23536 27.017C1.2114 24.5224 1.2285 24.2258 1.39665 24.2277C1.4449 24.2283 1.82002 24.8231 2.23023 25.5494ZM13.1643 25.0105C14.0042 25.6445 15.7128 26.4192 16.8746 26.6925C17.8439 26.9206 19.3637 27.1254 20.4927 27.1802L21.0546 27.2074L21.55 28.051C21.8225 28.515 22.2234 29.1687 22.4407 29.5037C22.6581 29.8389 22.9852 30.3957 23.1678 30.741C23.3502 31.0864 23.5696 31.4489 23.6555 31.5467C23.7412 31.6443 23.8113 31.7845 23.8113 31.8582C23.8113 31.9319 23.9415 32.1984 24.1005 32.4503C24.3962 32.9187 24.3975 33.225 24.1036 33.225C23.9513 33.225 22.8143 32.5831 22.6866 32.4249C22.6556 32.3867 22.4035 32.2403 22.1261 32.0996C21.8487 31.959 21.2292 31.5979 20.7495 31.2972C20.2696 30.9964 19.8554 30.7505 19.829 30.7505C19.8024 30.7505 19.4096 30.5312 18.956 30.2632C18.5024 29.9953 17.6251 29.5068 17.0064 29.1777C16.3878 28.8487 15.5527 28.3678 15.1506 28.1094C14.7484 27.8508 14.3331 27.6078 14.2275 27.5692C14.034 27.4988 13.536 26.7897 13.3573 26.3302C13.3043 26.1941 13.0788 25.7819 12.8561 25.4144C12.2475 24.4103 12.292 24.3519 13.1643 25.0105ZM41.9692 24.8316C40.4385 25.5444 39.0999 27.8492 39.2506 29.5122C39.2829 29.8682 39.4354 30.3969 39.5984 30.7187C39.8425 31.2003 39.9718 31.3233 40.4107 31.4909C40.862 31.6633 41.0035 31.6714 41.4546 31.5513C43.0178 31.1349 44.323 29.6773 44.8002 27.815C45.4069 25.4466 43.9487 23.9099 41.9692 24.8316ZM28.595 27.117C29.088 27.9641 29.5117 28.7108 29.5364 28.776C29.5611 28.8412 29.6743 29.0144 29.788 29.1609C29.9016 29.3074 29.9682 29.4699 29.9358 29.5222C29.8657 29.6357 27.9947 30.7423 27.351 31.0511C26.8713 31.2812 25.6487 31.9946 25.1375 32.3426C24.9699 32.4567 24.7554 32.5501 24.6609 32.5501C24.4809 32.5501 24.1065 32.0182 23.5522 30.9754C23.3713 30.6352 23.1627 30.2809 23.0886 30.1881C23.0144 30.0953 22.8571 29.7916 22.739 29.5132C22.6208 29.2348 22.3014 28.6361 22.0292 28.1828C21.7571 27.7295 21.5784 27.3183 21.6324 27.2689C21.6864 27.2195 22.1958 27.1215 22.7646 27.0509C24.0364 26.893 25.4064 26.5044 26.5151 25.9868C26.9767 25.7713 27.4318 25.5908 27.5265 25.5857C27.6332 25.58 28.0391 26.1615 28.595 27.117ZM43.4454 25.8486C43.6271 25.9815 43.6637 26.1464 43.6637 26.8327C43.6637 27.5328 43.6074 27.7762 43.291 28.4447C42.8816 29.3096 42.6459 29.6075 41.9878 30.0909C40.9479 30.8546 40.1792 30.1966 40.4761 28.7969C40.5836 28.2903 40.7502 27.914 41.3321 26.8627C41.4966 26.5657 42.4305 25.8536 42.7639 25.7708C43.1474 25.6757 43.2203 25.684 43.4454 25.8486ZM11.8211 27.5473C12.2275 27.7171 13.3036 28.3451 13.5196 28.5387C13.5815 28.5941 14.2096 28.9499 14.9155 29.3294C16.1856 30.0123 16.2027 30.0269 16.5821 30.7505C17.1004 31.7394 18.4154 34.0283 18.5853 34.2373C18.6606 34.3301 18.9116 34.7603 19.1428 35.1933C20.1015 36.9884 20.4552 37.5991 20.6106 37.728C20.7007 37.8029 20.7784 37.9464 20.7833 38.0471C20.7882 38.1479 20.9383 38.458 21.1169 38.7364C21.2956 39.0148 21.5512 39.445 21.6851 39.6924C21.8188 39.9399 22.1496 40.5085 22.4199 40.9559C23.1918 42.2333 23.1186 42.268 21.5788 41.3539C20.9817 40.9995 20.307 40.6239 20.0792 40.5193C19.8514 40.4147 19.3118 40.0984 18.8799 39.8164C18.27 39.4182 18.0218 39.1712 17.7686 38.7107C17.1426 37.572 16.0178 35.6389 15.6564 35.0808C15.456 34.7715 15.1916 34.316 15.0687 34.0685C14.7268 33.3804 14.2309 32.5132 14.0712 32.3244C13.9171 32.1421 12.8894 30.3676 12.2477 29.1758C12.0312 28.7737 11.7353 28.2558 11.5902 28.0251C11.3502 27.6434 11.2589 27.3761 11.3688 27.3761C11.3922 27.3761 11.5957 27.4532 11.8211 27.5473ZM53.6236 28.8272C52.6678 29.3772 51.8484 29.921 51.8028 30.0358C51.7571 30.1505 51.7483 30.7505 51.7829 31.3691C51.8394 32.3759 51.824 32.5125 51.6353 32.6719C51.5195 32.7698 50.6401 33.295 49.6812 33.839C48.7224 34.3829 47.7968 34.9257 47.6245 35.0452C47.452 35.1646 46.9965 35.4295 46.6122 35.6339C46.2277 35.8383 45.0167 36.5314 43.9209 37.1741C41.9375 38.3374 41.1713 38.7752 40.2243 39.2857C39.9508 39.4333 39.7017 39.5921 39.6707 39.6387C39.6398 39.6852 39.4373 39.8077 39.2208 39.9108C38.7312 40.1438 38.7062 40.158 35.602 41.971C34.1992 42.7902 33.0219 43.4604 32.9858 43.4604C32.9497 43.4604 32.438 43.1821 31.8486 42.8418C31.2592 42.5016 30.689 42.2232 30.5814 42.2232C30.4099 42.2232 27.2479 43.9735 26.8764 44.2741C26.7797 44.3523 26.7358 44.7646 26.7358 45.5938C26.7358 46.602 26.7681 46.8281 26.9326 46.9721C27.2379 47.2393 29.5567 48.5219 29.7342 48.5219C29.8211 48.5219 30.5359 48.1498 31.3227 47.6949C41.9476 41.5524 43.2933 40.7755 44.113 40.3111C44.9586 39.8319 45.1977 39.6941 46.5699 38.8941C47.3022 38.4671 48.0868 38.0119 48.3133 37.8825C48.5398 37.7531 49.3832 37.2673 50.1874 36.8031C52.1094 35.6935 55.1388 33.9467 56.8236 32.9766C57.5659 32.5491 58.2618 32.0955 58.3702 31.9686C58.5283 31.7831 58.567 31.5228 58.567 30.6429C58.567 29.7423 58.532 29.5168 58.3702 29.3717C57.9753 29.018 55.8424 27.826 55.6053 27.8266C55.4711 27.8269 54.5793 28.2772 53.6236 28.8272ZM56.1636 29.4099C56.6382 29.7033 56.6414 29.8714 56.1768 30.1062C55.9758 30.2079 55.568 30.4298 55.2707 30.5993L54.7303 30.9076L54.2303 30.6346C53.9554 30.4843 53.731 30.3098 53.7317 30.2467C53.7334 30.0955 55.3004 29.1891 55.5731 29.1816C55.6895 29.1783 55.9553 29.2812 56.1636 29.4099ZM18.2248 31.1852C18.8539 31.548 19.7481 32.0781 20.2121 32.3633C20.676 32.6483 21.2213 32.9687 21.4238 33.0753C21.6898 33.2153 21.9775 33.5867 22.4615 34.4148L23.1311 35.5603L23.1594 38.2662C23.1751 39.7545 23.1475 41.0125 23.0982 41.0617C22.9816 41.1784 22.6728 40.7695 22.191 39.8603C21.9776 39.4577 21.5971 38.825 21.3453 38.4543C21.0934 38.0836 20.8874 37.7433 20.8871 37.6982C20.8869 37.613 19.9287 35.9105 19.3824 35.0246C18.9816 34.3744 17.6251 31.9742 17.6251 31.9149C17.6251 31.8901 17.4479 31.6123 17.2314 31.2975C16.5516 30.3092 16.681 30.2946 18.2248 31.1852ZM57.3098 31.1578C57.2697 31.3595 55.5507 32.3833 55.4393 32.2718C55.298 32.1306 55.625 31.8085 56.3273 31.3972C57.1114 30.938 57.3661 30.876 57.3098 31.1578ZM1.97479 31.5097C2.15363 31.6799 2.88282 32.8313 3.59515 34.0685C4.30747 35.3058 5.51997 37.4063 6.28955 38.7364C7.92722 41.5668 12.3321 49.1999 12.8451 50.0966C13.4248 51.1097 15.3076 54.3698 16.8403 57.014C17.6291 58.375 19.3685 61.3802 20.7055 63.6922L23.1365 67.8958V70.647C23.1365 72.5852 23.1002 73.3862 23.0137 73.3574C22.9103 73.3229 20.4965 69.1988 13.5797 57.239C12.9715 56.1873 12.2095 54.8713 11.8862 54.3146C11.5631 53.7578 10.7294 52.3153 10.0337 51.1089C9.33804 49.9026 7.28644 46.3596 5.47476 43.2355C3.66297 40.1114 1.96073 37.1684 1.69202 36.6956L1.2033 35.8358L1.20454 33.9399C1.20634 31.1163 1.28867 30.8569 1.97479 31.5097ZM53.2805 31.6034C53.2805 31.802 53.0384 31.7675 52.9689 31.5589C52.9443 31.4854 53.0045 31.4253 53.1025 31.4253C53.2003 31.4253 53.2805 31.5054 53.2805 31.6034ZM3.99905 32.5904C4.47191 32.86 5.51683 33.4618 6.32104 33.9277L7.78326 34.7749L8.5228 36.0527C8.92952 36.7554 10.1516 38.8742 11.2386 40.761C12.3254 42.6478 13.8584 45.3051 14.6451 46.6661C15.4316 48.027 16.8481 50.4819 17.7928 52.1212C18.7374 53.7606 20.3261 56.5155 21.3233 58.2433L23.1365 61.3848V64.1203C23.1365 65.7285 23.0934 66.8558 23.0321 66.8558C22.9014 66.8558 22.6037 66.3524 18.0761 58.4762C17.2582 57.0534 16.423 55.6109 16.2203 55.2706C15.8595 54.6653 12.6507 49.1148 10.5957 45.5413C10.0265 44.5515 8.69849 42.2485 7.64468 40.4235C3.32688 32.9467 2.89047 32.1867 2.89047 32.1444C2.89047 32.0148 3.22723 32.1503 3.99905 32.5904ZM53.2805 33.4499C53.2805 33.5118 53.2299 33.5624 53.1681 33.5624C53.1062 33.5624 53.0556 33.5118 53.0556 33.4499C53.0556 33.3881 53.1062 33.3374 53.1681 33.3374C53.2299 33.3374 53.2805 33.3881 53.2805 33.4499ZM52.7181 33.8196C52.7181 33.9633 50.5888 35.2496 50.351 35.2496C50.2829 35.2496 50.2435 35.1646 50.2635 35.0609C50.3041 34.8503 52.2132 33.6798 52.5213 33.6768C52.6296 33.6758 52.7181 33.74 52.7181 33.8196ZM23.2535 34.1058C23.4504 34.2653 23.4908 34.3795 23.4325 34.6119C23.391 34.777 23.3133 34.9121 23.2598 34.9121C23.1395 34.9121 22.859 34.4932 22.7515 34.1529C22.6507 33.8343 22.8904 33.8118 23.2535 34.1058ZM49.85 35.458C49.85 35.6182 47.6539 36.9483 47.523 36.8674C47.2786 36.7164 47.522 36.4793 48.5264 35.8902C49.5903 35.2663 49.85 35.1815 49.85 35.458ZM10.7416 36.4868C11.8057 37.1054 12.7069 37.6116 12.7443 37.6116C12.9389 37.6116 13.7157 38.359 13.8465 38.6722C13.9295 38.8708 14.1416 39.2575 14.318 39.5316C14.4944 39.8056 14.6938 40.1311 14.7612 40.2548C15.0053 40.7029 20.9505 50.9877 22.0296 52.8287L23.1365 54.7172V57.5247C23.1365 59.2053 23.094 60.3321 23.0305 60.3321C22.9137 60.3321 22.5127 59.6642 19.9915 55.2706C19.0507 53.6313 18.0876 51.961 17.8511 51.5589C17.464 50.9002 14.953 46.5429 10.8186 39.355C10.0002 37.9322 9.17224 36.5001 8.97867 36.1726C8.62121 35.5677 8.55485 35.362 8.71705 35.362C8.76654 35.362 9.67772 35.8682 10.7416 36.4868ZM4.21512 41.725C5.72154 44.3189 7.55189 47.4787 8.28243 48.7469C9.01297 50.0151 10.1535 51.9891 10.817 53.1335C11.4805 54.278 12.5076 56.0495 13.0992 57.0703C13.6909 58.091 14.69 59.8119 15.3193 60.8945C15.9486 61.9771 17.4413 64.5585 18.6365 66.6309C20.8053 70.3915 21.2968 71.2377 22.4993 73.2817L23.1365 74.3649V76.4592C23.1365 78.8655 23.1455 78.8492 22.176 78.188C21.6938 77.8591 21.4717 77.5293 19.9586 74.898C18.396 72.1804 16.9619 69.6935 13.4398 63.594C9.17775 56.2132 6.31699 51.2554 5.19717 49.3093C4.50295 48.103 3.32036 46.0532 2.56912 44.7542L1.2033 42.3925V39.6552C1.2033 37.5609 1.23536 36.9286 1.33962 36.9634C1.41465 36.9885 2.70859 39.1312 4.21512 41.725ZM47.0943 37.0416C47.0943 37.1753 46.6172 37.5116 45.9695 37.8345C45.6911 37.9733 45.354 38.187 45.2203 38.3093C44.959 38.5484 44.5635 38.5457 44.5635 38.3049C44.5635 38.2239 45.0443 37.8846 45.632 37.5507C46.6567 36.9687 47.0943 36.8163 47.0943 37.0416ZM51.987 39.4007C50.2434 40.4176 38.4091 47.2382 34.4405 49.5134C33.2032 50.2227 31.7607 51.0629 31.2349 51.3806L30.2788 51.958L30.25 61.2251C30.2236 69.7283 30.2366 70.5092 30.4081 70.6986C30.7497 71.076 30.244 71.3217 36.1277 67.9208C37.8598 66.9196 40.2893 65.5177 41.5266 64.8055C42.7639 64.0933 45.0668 62.7641 46.6443 61.8518C48.2218 60.9396 50.5754 59.5849 51.8746 58.8415C53.1737 58.098 54.2999 57.411 54.3772 57.3147C54.4871 57.1779 54.5178 55.1346 54.5178 47.9555C54.5178 39.2008 54.5081 38.7626 54.3121 38.5851C54.1989 38.4827 54.0092 38.4029 53.8903 38.4077C53.7715 38.4126 52.915 38.8594 51.987 39.4007ZM14.8613 38.852C15.1043 39.0359 15.3495 39.1863 15.4063 39.1863C15.463 39.1863 15.6684 39.3002 15.8628 39.4394C16.057 39.5785 16.3432 39.7581 16.4987 39.8384C16.6543 39.9189 17.3273 40.2973 17.9946 40.6797L19.2075 41.3748L20.4616 43.5705C21.1514 44.7781 22.0353 46.3132 22.4261 46.9819L23.1365 48.1975V50.9561C23.1365 53.0145 23.1031 53.7036 23.0047 53.6707C22.8862 53.6313 22.2104 52.4913 18.5522 46.1599C17.9625 45.1392 17.242 43.8991 16.9512 43.4042C14.263 38.8288 14.09 38.5055 14.3351 38.5146C14.3815 38.5163 14.6183 38.6681 14.8613 38.852ZM44.2261 38.7364C44.2261 38.8275 44.0747 38.9746 43.8895 39.0634C43.7044 39.1521 43.489 39.2886 43.4108 39.3668C43.3327 39.445 43.1551 39.5436 43.0163 39.5859C42.8775 39.6282 42.6879 39.7288 42.5951 39.8094C42.3395 40.0317 41.8078 40.1401 41.8078 39.9701C41.8078 39.786 42.0585 39.5983 42.861 39.1817C43.2239 38.9933 43.597 38.7629 43.6902 38.6697C43.8948 38.4651 44.2261 38.5064 44.2261 38.7364ZM41.4492 40.3409C41.471 40.454 41.4004 40.5648 41.2818 40.6035C40.9157 40.7226 40.3456 41.035 40.3456 41.1164C40.3456 41.16 40.2316 41.2311 40.0925 41.2743C39.9534 41.3175 39.7051 41.4474 39.5409 41.5631C39.1928 41.8081 38.8834 41.8371 38.8834 41.6246C38.8834 41.4897 39.6994 40.8735 39.878 40.8735C39.9191 40.8735 40.204 40.6947 40.5113 40.4763C41.1 40.0577 41.3868 40.0163 41.4492 40.3409ZM53.2805 43.1423V45.8611L52.1139 47.8944C50.9139 49.9861 49.4556 52.5074 48.0755 54.8769C47.643 55.6193 46.6335 57.3655 45.832 58.7574C45.0306 60.1493 44.2584 61.4685 44.116 61.6888C43.9136 62.0022 43.3509 62.3794 41.535 63.4191C40.258 64.1503 39.1839 64.7193 39.1481 64.6837C39.0871 64.6225 39.868 63.2252 42.6174 58.4762C43.8696 56.3134 46.7475 51.3332 50.5798 44.6977C52.7999 40.8537 53.0606 40.4235 53.1718 40.4235C53.2388 40.4235 53.2805 41.4661 53.2805 43.1423ZM52.3795 40.7891C52.3788 40.8665 52.0424 41.5118 51.6318 42.2232C51.2213 42.9346 50.6238 43.9722 50.3041 44.529C49.9845 45.0858 48.8719 47.0091 47.8317 48.8031C46.7914 50.5972 45.2833 53.2038 44.4803 54.5958C43.6773 55.9877 42.6374 57.7845 42.1695 58.5887C41.7015 59.3929 40.666 61.1898 39.8685 62.5817C39.0708 63.9736 38.3584 65.1719 38.2852 65.2446C38.1447 65.3842 33.9469 67.8272 33.6552 67.9392C33.5613 67.9752 33.4844 67.9499 33.4844 67.8829C33.4844 67.8158 34.5151 65.9757 35.7748 63.7935C37.0345 61.6113 38.3569 59.3198 38.7134 58.7012C41.3153 54.187 46.6611 44.931 47.0838 44.2082L47.6004 43.325L49.9062 41.9868C51.1744 41.2508 52.25 40.6486 52.2964 40.6486C52.3427 40.6485 52.3802 40.7118 52.3795 40.7891ZM38.5176 42.0076C38.5346 42.1051 38.1201 42.4069 37.4491 42.7856C36.1647 43.5103 36.0711 43.5433 36.0724 43.2718C36.0731 43.1313 36.4185 42.8666 37.1691 42.4311C38.2857 41.7832 38.4683 41.7258 38.5176 42.0076ZM21.4639 42.6872C22.2291 43.1278 22.9186 43.539 22.9959 43.6007C23.1878 43.7539 23.1994 47.2119 23.0077 47.148C22.8758 47.1041 19.9871 42.1679 19.9871 41.9863C19.9871 41.931 20.0063 41.8858 20.0298 41.8858C20.0532 41.8858 20.6986 42.2464 21.4639 42.6872ZM2.02687 44.5009C2.7465 45.7245 3.55173 47.1161 4.9721 49.5905C5.84808 51.1166 8.07413 54.9715 9.35615 57.1827C9.55343 57.523 10.1958 58.6365 10.7838 59.6573C11.3717 60.678 12.1467 62.0193 12.506 62.6379C12.8653 63.2565 13.841 64.9521 14.6742 66.4059C15.5074 67.8597 16.5289 69.6312 16.9441 70.3427C18.9632 73.8016 20.7697 76.9482 20.8366 77.1225C20.8808 77.2378 20.8578 77.3163 20.7796 77.3163C20.6513 77.3163 16.9522 75.2263 16.3807 74.8309C16.0956 74.6337 15.6208 73.8471 11.9396 67.4745C6.66635 58.3456 4.68933 54.9309 2.70128 51.5179L1.2033 48.9462V46.2033C1.2033 44.563 1.24593 43.4604 1.30926 43.4604C1.36752 43.4604 1.69045 43.9287 2.02687 44.5009ZM35.7026 43.6475C35.7465 43.7792 33.6485 45.0351 33.3847 45.0351C33.002 45.0351 33.4181 44.6112 34.328 44.074C35.3294 43.4828 35.618 43.3933 35.7026 43.6475ZM31.1269 43.8001C31.3719 43.9252 31.5718 44.0896 31.5711 44.1657C31.5698 44.3203 29.9858 45.2601 29.7264 45.2601C29.4828 45.2601 28.7601 44.8092 28.7621 44.6585C28.764 44.5171 30.3013 43.5783 30.5364 43.575C30.6161 43.5738 30.8819 43.6752 31.1269 43.8001ZM46.7054 44.1072C46.6356 44.2893 45.4217 46.4253 43.5253 49.703C42.2263 51.9482 41.0674 53.9552 39.4657 56.7328C38.6274 58.1866 37.109 60.8186 36.0917 62.5817C35.0742 64.3448 33.8885 66.4063 33.4565 67.1628C32.7753 68.3561 32.604 68.5758 32.1638 68.8218C31.3164 69.2955 31.3474 69.3649 31.3474 66.99V64.8746L32.1488 63.4751C32.8895 62.1813 33.6643 60.8434 38.2679 52.9086C39.1831 51.3311 40.3359 49.3318 40.8297 48.4657C41.3234 47.5996 41.8068 46.7992 41.9039 46.6872C42.0009 46.5751 42.5631 46.209 43.1532 45.8735C43.7433 45.5382 44.7322 44.9647 45.3508 44.5991C46.5582 43.8855 46.828 43.7875 46.7054 44.1072ZM32.8096 45.2959C32.8096 45.4457 32.6811 45.5352 31.4598 46.2363C30.5626 46.7514 30.3351 46.8178 30.3351 46.5643C30.3351 46.3933 32.586 45.0227 32.7252 45.1087C32.7716 45.1374 32.8096 45.2216 32.8096 45.2959ZM28.6099 46.1084C29.0545 46.369 29.268 46.7223 28.9808 46.7223C28.6713 46.7223 27.973 46.2532 27.973 46.0452C27.973 45.7593 28.0226 45.7642 28.6099 46.1084ZM53.2805 49.6685V52.3898L51.5278 55.4504C50.5637 57.1336 49.6654 58.6122 49.5313 58.7362C49.2608 58.9863 44.9954 61.4569 44.834 61.4569C44.778 61.4569 44.7322 61.4313 44.7322 61.4C44.7322 61.3396 45.6135 59.7781 46.6998 57.9138C47.0603 57.2952 47.5156 56.5107 47.7117 56.1704C53.182 46.6772 53.0222 46.9473 53.1706 46.9473C53.2391 46.9473 53.2805 47.9722 53.2805 49.6685ZM41.1329 47.2303C41.1329 47.292 39.1249 50.8 37.5928 53.4147C37.0853 54.2808 35.9089 56.3054 34.9786 57.9138C34.0484 59.5223 32.9072 61.4944 32.4428 62.2961C31.9784 63.0979 31.5419 63.7728 31.4729 63.7959C31.3828 63.8259 31.3474 63.0711 31.3474 61.1243C31.3474 57.9823 31.172 58.5888 32.9747 55.4956C33.6056 54.413 34.5983 52.7033 35.1809 51.6963L36.2401 49.8654L38.321 48.6721C39.4654 48.0158 40.5017 47.4099 40.6237 47.3255C40.8441 47.1732 41.1329 47.1191 41.1329 47.2303ZM3.26524 53.1425C4.24583 54.8388 5.59095 57.1631 6.25457 58.3075C9.72237 64.2882 13.9728 71.6431 14.6889 72.9025C15.0146 73.4754 15.2643 73.9944 15.2438 74.056C15.2057 74.1704 10.9385 71.7727 10.5428 71.4147C10.3356 71.2272 9.79751 70.3166 5.88823 63.5377C4.96073 61.9293 3.52709 59.4531 2.70252 58.0351L1.2033 55.457V52.7112C1.2033 50.5748 1.23424 49.9757 1.34289 50.0119C1.41971 50.0376 2.28477 51.4464 3.26524 53.1425ZM35.3966 50.5566C35.3966 50.6239 34.9503 51.4465 34.4047 52.3843C33.8592 53.3223 32.9941 54.8109 32.4823 55.6924C31.9704 56.5739 31.5046 57.2952 31.4471 57.2952C31.3854 57.2952 31.3552 56.3495 31.3732 54.9777L31.4036 52.6602L33.3157 51.5493C34.3674 50.9383 35.2659 50.4374 35.3122 50.4362C35.3585 50.4351 35.3966 50.4892 35.3966 50.5566ZM53.2555 55.0665L53.2243 56.662L51.9308 57.4238C51.2194 57.8428 50.5993 58.1877 50.553 58.1903C50.3607 58.2011 50.5137 57.8627 51.3834 56.3527C52.7961 53.9 53.0635 53.471 53.1793 53.471C53.244 53.471 53.2742 54.106 53.2555 55.0665ZM2.22314 57.8669C2.62941 58.5732 3.54734 60.1634 4.26293 61.4007C8.27018 68.3288 9.63914 70.7128 9.63914 70.7629C9.63914 70.9127 9.01196 70.602 7.18757 69.5488C6.09237 68.9164 5.08918 68.3335 4.95826 68.2534C4.82745 68.1733 4.123 67.0794 3.3928 65.8227C2.6627 64.566 1.87131 63.2119 1.63431 62.8137L1.2033 62.0897V59.2894C1.2033 57.0992 1.2339 56.4993 1.3439 56.536C1.42129 56.5618 1.81687 57.1607 2.22314 57.8669ZM1.51251 63.2847C1.60834 63.4051 2.74818 65.3546 3.65329 66.946C3.80469 67.2122 3.89917 67.4593 3.86329 67.4952C3.78309 67.5754 1.80607 66.4695 1.45638 66.1489C1.22017 65.9323 1.2033 65.8244 1.2033 64.5305C1.2033 63.2077 1.26224 62.9701 1.51251 63.2847Z" fill="#57C2DE"/>
</svg>
