<svg width="52" height="62" viewBox="0 0 52 62" fill="none" xmlns="http://www.w3.org/2000/svg">
<path fill-rule="evenodd" clip-rule="evenodd" d="M47.394 0.153239C47.158 0.23822 46.3325 0.673105 45.5596 1.1196C44.7866 1.56609 43.3863 2.37409 42.4477 2.91511C41.5092 3.45614 40.127 4.25348 39.3761 4.68683C38.6253 5.12026 37.2623 5.90659 36.3472 6.43431C33.629 8.00176 29.1078 10.6102 27.4737 11.5537C26.8871 11.8924 25.7737 12.5347 24.9994 12.9811C22.0233 14.6965 18.5953 16.6738 17.491 17.3119C16.8575 17.678 15.5905 18.4085 14.6754 18.9352C13.7603 19.4619 12.2629 20.3258 11.3478 20.8551C10.4328 21.3843 8.93535 22.248 8.02027 22.7742C2.6199 25.8797 2.63978 25.8675 2.00242 26.485C1.00987 27.4467 0.329514 28.6911 0.0930866 29.9776C0.0283272 30.3298 0 34.6944 0 44.3193V58.1549L0.258528 58.6723C0.415521 58.9865 0.658518 59.3031 0.877113 59.4785C1.47223 59.9559 2.79813 60.673 3.09744 60.6794C3.77379 60.6939 4.34647 60.5543 4.83434 60.2561C5.68219 59.7378 9.72424 57.4142 9.77808 57.4142C9.80606 57.4142 10.0459 57.2832 10.3111 57.1229C11.6155 56.3349 15.8675 53.916 15.9483 53.916C16.009 53.916 16.0405 54.2478 16.0405 54.8856C16.0405 56.1118 16.1362 56.6218 16.5087 57.3814C18.3476 61.1312 25.7286 62.8864 31.4838 60.9423C34.378 59.9647 36.2289 58.3075 36.6511 56.3155C36.7939 55.6419 36.8103 54.0636 36.682 53.3558C36.4741 52.2092 35.6875 51.0657 34.4701 50.1406C33.831 49.6549 32.3111 48.8943 31.4412 48.6249C31.1127 48.5231 30.7095 48.3937 30.5453 48.3374L30.2467 48.235V46.9272V45.6193L33.0196 44.0225C34.5448 43.1443 36.4261 42.06 37.2004 41.613C37.9747 41.166 39.5105 40.2816 40.6133 39.6475C41.7161 39.0135 43.0791 38.2283 43.6422 37.9025C44.2054 37.5769 45.6644 36.7371 46.8845 36.0366C48.897 34.881 49.1661 34.6994 49.7854 34.0786C50.5302 33.3319 51.0355 32.5301 51.4261 31.4749L51.6625 30.8364L51.6851 16.7631C51.7101 1.15833 51.743 2.11002 51.1548 1.45892C50.8659 1.13905 49.4392 0.274141 48.8981 0.0907837C48.4826 -0.0499977 47.8899 -0.0254254 47.394 0.153239ZM48.4133 0.897503C48.643 0.98564 48.5676 1.07617 47.9995 1.39382C47.5172 1.66353 47.4244 1.68861 47.2316 1.60081C47.1111 1.54587 47.0124 1.45423 47.0124 1.39715C47.0124 1.27139 47.763 0.93513 48.2213 0.85561C48.2527 0.850149 48.339 0.869005 48.4133 0.897503ZM46.9301 1.74518C47.0695 1.91318 47.0387 1.94142 46.1592 2.4496C45.7603 2.68005 44.7923 3.239 44.008 3.69163C43.2236 4.14426 42.5085 4.51456 42.4186 4.51456C42.2346 4.51456 42.0075 4.28649 42.0996 4.19426C42.2851 4.00886 46.4878 1.62598 46.6394 1.62035C46.7393 1.61668 46.87 1.67282 46.9301 1.74518ZM50.1294 1.82257C50.2921 1.89057 50.4253 2.00097 50.4253 2.06795C50.4253 2.18629 49.0059 3.06409 48.8145 3.06409C48.6781 3.06409 48.6914 3.01443 48.9476 2.56734C49.4821 1.63409 49.5603 1.58477 50.1294 1.82257ZM48.8895 2.09372C48.8895 2.21172 48.2022 3.38294 48.0603 3.50665C47.9374 3.61373 41.0537 7.56781 40.3839 7.91609C40.0695 8.07957 40.1013 7.91379 40.5198 7.20656C40.8234 6.69351 41.0135 6.47313 41.3005 6.30155C41.5091 6.1768 42.5053 5.60156 43.5142 5.02325C44.5232 4.44485 46.0974 3.53745 47.0124 3.00675C48.5475 2.11633 48.8895 1.95004 48.8895 2.09372ZM50.8337 3.97422C50.8581 4.75167 50.8572 4.75517 50.6072 4.93315C50.1322 5.27145 50.084 5.20968 50.084 4.26133C50.084 3.4215 50.087 3.40921 50.3187 3.28242C50.7535 3.04446 50.8068 3.11613 50.8337 3.97422ZM49.2126 4.88349L49.237 5.70779L48.9627 5.87468C48.8117 5.9664 48.6568 6.02203 48.6183 5.99823C48.5797 5.97442 48.5482 5.59567 48.5482 5.15652C48.5482 4.38487 48.5561 4.35228 48.7829 4.18326C48.912 4.0871 49.0559 4.01978 49.1028 4.03377C49.1499 4.04768 49.1992 4.42967 49.2126 4.88349ZM42.0638 4.7236C42.0638 4.77659 41.7279 5.01301 41.3172 5.24884C40.9066 5.48476 39.8849 6.07305 39.0468 6.55606C37.6943 7.33556 37.5 7.42387 37.319 7.34145C37.2068 7.29034 37.1154 7.19973 37.1158 7.14C37.1164 7.04521 39.0789 5.86777 41.0173 4.79928C41.5648 4.49741 41.6919 4.45782 41.8628 4.53564C41.9733 4.58606 42.0638 4.67062 42.0638 4.7236ZM47.6097 18.6342V32.2418L47.2897 32.4482C47.1138 32.5618 46.1635 33.1137 45.178 33.6748C44.1926 34.2358 41.9081 35.5397 40.1014 36.5723C38.2947 37.6048 35.4726 39.2168 33.8302 40.1545C32.1877 41.0922 28.9434 42.9445 26.6205 44.2707C24.2976 45.5969 21.8787 46.9807 21.2452 47.3459C20.0311 48.0457 15.6411 50.5539 10.1533 53.6832C8.34663 54.7134 6.69863 55.6672 6.49121 55.8027C6.28371 55.9382 6.0437 56.0491 5.95795 56.0491C5.80744 56.0491 5.8019 55.5659 5.8019 42.408C5.8019 31.5978 5.824 28.7491 5.90855 28.6809C5.96725 28.6337 7.37822 27.8184 9.04414 26.8692C10.71 25.9201 12.3034 25.001 12.585 24.8269C12.8666 24.6529 13.5193 24.2861 14.0355 24.0118C14.5517 23.7377 14.9932 23.4897 15.0167 23.4607C15.0697 23.3955 16.1225 22.7735 16.18 22.7735C16.2155 22.7735 16.916 22.3829 18.4142 21.5278C18.5869 21.4291 19.2657 21.0421 19.9227 20.6676C20.5797 20.293 22.0579 19.4487 23.2076 18.7912C24.3573 18.1338 27.7937 16.1721 30.8439 14.432C33.8942 12.6919 38.8471 9.86511 41.8505 8.1503C44.8538 6.4355 47.3782 5.0311 47.4604 5.02948C47.6019 5.02666 47.6097 5.73023 47.6097 18.6342ZM50.8337 6.7971L50.8582 7.57276L50.5601 7.80006C50.3961 7.92505 50.222 8.00261 50.173 7.97241C50.1214 7.9405 50.084 7.57873 50.084 7.11057V6.30385L50.3613 6.13474C50.5138 6.04183 50.677 5.97826 50.724 5.99362C50.7709 6.00898 50.8203 6.37049 50.8337 6.7971ZM49.2126 7.78128L49.2369 8.60251L48.9821 8.73425C48.842 8.80669 48.6871 8.86598 48.6378 8.86598C48.5813 8.86598 48.5482 8.55243 48.5482 8.0155C48.5482 7.17533 48.5511 7.16347 48.7829 7.03788C48.912 6.968 49.0559 6.92192 49.1028 6.9354C49.1499 6.94897 49.1991 7.32882 49.2126 7.78128ZM40.272 7.06671C40.272 7.17848 39.6041 8.32137 39.4802 8.42163C39.2972 8.56966 31.7209 12.8761 31.6436 12.8761C31.525 12.8761 31.5479 12.8196 31.949 12.1243L32.329 11.4656L34.9566 9.95325C36.4019 9.12144 38.1411 8.11635 38.8215 7.71977C40.0274 7.01697 40.272 6.90682 40.272 7.06671ZM36.8948 7.38198C37.2626 7.5231 36.9749 7.74502 34.791 9.00446C32.8249 10.1383 32.5297 10.284 32.3567 10.2051C32.2484 10.1558 32.1709 10.0603 32.1844 9.993C32.2086 9.87304 36.4643 7.34623 36.6601 7.33565C36.715 7.33266 36.8206 7.35348 36.8948 7.38198ZM50.7666 9.71699V10.5681L50.5149 10.6982C50.3764 10.7698 50.2229 10.8284 50.1736 10.8284C50.1171 10.8284 50.084 10.5148 50.084 9.9779C50.084 9.13782 50.0869 9.12587 50.3187 9.00011C50.7477 8.76735 50.7666 8.79764 50.7666 9.71699ZM49.2308 10.5724C49.2308 11.2266 49.2056 11.3656 49.0602 11.511C48.9663 11.6048 48.8127 11.6816 48.7189 11.6816C48.5603 11.6816 48.5482 11.6247 48.5482 10.8759C48.5482 10.14 48.5647 10.0586 48.7379 9.93738C48.8422 9.86434 48.9958 9.80453 49.0792 9.80453C49.2132 9.80453 49.2308 9.89343 49.2308 10.5724ZM32.0631 10.4693C32.0495 10.5366 31.6737 10.8028 31.2279 11.0609C27.6188 13.1499 27.6118 13.1536 27.3898 13.0755C27.2717 13.034 27.1751 12.9481 27.1751 12.8848C27.1751 12.8214 27.6742 12.4816 28.2843 12.1295C31.8917 10.0477 31.6765 10.1596 31.8887 10.2561C31.9982 10.3061 32.0766 10.402 32.0631 10.4693ZM50.7666 12.5777C50.7666 13.3084 50.7501 13.39 50.5769 13.5112C50.4727 13.5842 50.3191 13.644 50.2357 13.644C50.101 13.644 50.084 13.5532 50.084 12.8322V12.0204L50.3553 11.8554C50.5045 11.7647 50.6581 11.7099 50.6966 11.7337C50.7351 11.7575 50.7666 12.1373 50.7666 12.5777ZM31.4647 12.4596C31.311 12.7396 31.1084 13.0614 31.0146 13.1746C30.8513 13.3716 23.3001 17.7395 23.1228 17.7395C22.9923 17.7395 23.0115 17.6826 23.3569 17.0474L23.6769 16.459L25.554 15.3781C26.5863 14.7837 28.3717 13.7517 29.5214 13.0848C30.6711 12.4179 31.6416 11.8899 31.678 11.9114C31.7145 11.9328 31.6185 12.1796 31.4647 12.4596ZM49.2126 13.4444C49.2363 14.2007 49.2302 14.2294 49.0091 14.4033C48.5929 14.7308 48.5482 14.6665 48.5482 13.7398C48.5482 12.9626 48.5632 12.8864 48.7402 12.7619C49.1166 12.4971 49.186 12.5975 49.2126 13.4444ZM26.9674 13.1351C27.0582 13.1837 27.1319 13.2701 27.1313 13.327C27.1308 13.384 26.4876 13.7997 25.7022 14.2508C24.9168 14.7018 23.895 15.2913 23.4315 15.5608C22.6987 15.9868 22.5625 16.0386 22.3863 15.9584C22.2749 15.9076 22.1838 15.8173 22.184 15.7575C22.1842 15.6979 22.5202 15.4574 22.9306 15.2231C23.341 14.9888 24.3488 14.4047 25.17 13.9252C25.9912 13.4456 26.6945 13.0519 26.7328 13.05C26.771 13.0482 26.8766 13.0865 26.9674 13.1351ZM50.7666 15.3919C50.7666 16.1565 50.7567 16.1991 50.5389 16.3704C50.4136 16.4689 50.2696 16.5358 50.2189 16.519C50.1638 16.5008 50.117 16.1609 50.1024 15.6737L50.0781 14.859L50.3546 14.684C50.5067 14.5877 50.6616 14.5277 50.6989 14.5507C50.7362 14.5738 50.7666 14.9523 50.7666 15.3919ZM49.2126 16.2644L49.237 17.0366L48.9672 17.2635C48.8188 17.3885 48.6542 17.4763 48.6015 17.4588C48.5424 17.4392 48.4962 17.1305 48.4812 16.6549L48.4568 15.8827L48.7266 15.6557C48.8749 15.5308 49.0395 15.443 49.0923 15.4605C49.1513 15.4801 49.1975 15.7888 49.2126 16.2644ZM22.0606 16.0687C22.1517 16.1353 22.1949 16.2209 22.1569 16.2591C22.1187 16.2971 21.0826 16.9095 19.8542 17.62C17.9116 18.7435 17.5957 18.9003 17.428 18.8238C17.3218 18.7755 17.2351 18.6855 17.2351 18.6239C17.2351 18.5623 17.5509 18.3285 17.937 18.1044C18.3231 17.8803 19.3118 17.3054 20.134 16.827C20.9564 16.3487 21.689 15.9551 21.7622 15.9525C21.8353 15.9498 21.9697 16.0021 22.0606 16.0687ZM23.1199 16.9502C23.1186 16.9855 22.9526 17.2827 22.751 17.6107L22.3844 18.2071L20.471 19.2929C19.4186 19.8901 18.3848 20.4903 18.1736 20.6265C17.9624 20.7629 17.3673 21.0942 16.8511 21.3627C16.3349 21.6313 15.855 21.9018 15.7846 21.9641C15.6575 22.0763 14.6053 22.6882 14.5392 22.6882C14.4292 22.6882 14.5431 22.3373 14.8051 21.8689C15.1005 21.3407 15.1238 21.3217 16.2342 20.7133C17.1339 20.2204 20.5708 18.2528 22.5677 17.0874C22.9132 16.8859 23.1242 16.8334 23.1199 16.9502ZM50.7666 18.2416C50.7666 19.0439 50.7564 19.0917 50.5563 19.2228C50.1311 19.5014 50.084 19.4349 50.084 18.5563C50.084 17.7889 50.0944 17.7437 50.3089 17.5751C50.7218 17.2502 50.7666 17.3154 50.7666 18.2416ZM49.2126 19.1615C49.237 19.939 49.2361 19.9425 48.9861 20.1205C48.5154 20.4557 48.4629 20.393 48.4629 19.4948C48.4629 18.7238 48.4724 18.683 48.6918 18.5104C49.1035 18.1865 49.1853 18.2887 49.2126 19.1615ZM16.9847 18.8516C17.0755 18.9003 17.1497 18.9929 17.1497 19.0576C17.1497 19.1223 16.4106 19.6048 15.5073 20.1298C14.604 20.6548 13.6043 21.2396 13.2858 21.4292C12.7743 21.7338 12.6813 21.7626 12.4905 21.6756C12.142 21.5169 12.2775 21.3241 13.0329 20.9039C13.42 20.6886 14.4182 20.1195 15.2512 19.6393C16.0842 19.159 16.7779 18.7655 16.7927 18.7647C16.8075 18.7639 16.8939 18.8031 16.9847 18.8516ZM50.7666 21.1089C50.7666 21.8997 50.7638 21.9107 50.5112 22.0905C50.3708 22.1905 50.2172 22.2484 50.17 22.2192C50.1221 22.1897 50.084 21.8088 50.084 21.3594V20.5526L50.3553 20.3876C50.5045 20.2969 50.6581 20.2421 50.6966 20.2659C50.7351 20.2898 50.7666 20.6691 50.7666 21.1089ZM49.2125 22.0237L49.2368 22.8384L48.9286 23.0202C48.7592 23.1202 48.585 23.1801 48.5417 23.1534C48.4983 23.1266 48.4629 22.7417 48.4629 22.2979V21.4912L48.7402 21.3221C48.8927 21.2292 49.0559 21.1656 49.1028 21.1809C49.1498 21.1963 49.1991 21.5755 49.2125 22.0237ZM12.0698 21.7793C12.1563 21.8426 12.2016 21.9356 12.1704 21.986C12.1393 22.0366 11.6631 22.3374 11.1122 22.6547C7.4551 24.7612 7.67745 24.6462 7.45809 24.5463C7.34495 24.4947 7.25237 24.4083 7.25237 24.3543C7.25237 24.3003 7.70356 23.9989 8.25491 23.6845C8.80626 23.3701 9.81417 22.7884 10.4946 22.3919C11.1751 21.9955 11.7724 21.6696 11.8221 21.6677C11.8718 21.6658 11.9832 21.7161 12.0698 21.7793ZM14.5901 21.8715C14.5901 21.8916 14.5398 21.9588 14.4784 22.0209C14.417 22.0828 14.2577 22.3343 14.1246 22.5796C13.8206 23.1397 13.767 23.186 12.8836 23.6522C12.4847 23.8628 10.9681 24.7146 9.51341 25.5451C8.05867 26.3755 6.6698 27.1679 6.42706 27.3058C6.18431 27.4437 5.96623 27.525 5.94242 27.4865C5.91862 27.4479 6.04046 27.175 6.21315 26.8799C6.5605 26.2864 6.31059 26.4494 10.8359 23.865C11.6571 23.3961 12.3719 22.9774 12.4243 22.9347C12.4766 22.8919 12.9373 22.6284 13.4481 22.3491C14.2847 21.8915 14.5901 21.7639 14.5901 21.8715ZM50.7666 23.9658V24.8169L50.5149 24.947C50.3764 25.0186 50.2229 25.0772 50.1736 25.0772C50.1174 25.0772 50.084 24.7775 50.084 24.2728C50.084 23.5055 50.0944 23.4603 50.3089 23.2916C50.7223 22.9663 50.7666 23.0315 50.7666 23.9658ZM49.1882 24.8662V25.7075L48.9132 25.8681C48.762 25.9564 48.5988 26.0043 48.5505 25.9745C48.5007 25.9437 48.4629 25.5767 48.4629 25.1227V24.325L48.7402 24.154C48.8927 24.06 49.0559 23.9924 49.1028 24.0039C49.1525 24.0161 49.1882 24.3762 49.1882 24.8662ZM7.14999 24.6676C7.2063 24.7239 7.25237 24.7962 7.25237 24.8282C7.25237 24.8602 6.56647 25.2796 5.72827 25.7602C4.74288 26.325 3.98684 26.8268 3.5895 27.1795L2.97492 27.7251L2.72468 27.5773C2.58697 27.496 2.47434 27.3827 2.47434 27.3255C2.47434 27.2684 2.65232 27.0751 2.86989 26.896C3.38566 26.4714 6.64582 24.5774 6.87269 24.5705C6.96893 24.5676 7.09367 24.6113 7.14999 24.6676ZM50.7666 26.7788C50.7666 27.5588 50.7513 27.6379 50.5769 27.76C50.4727 27.833 50.3191 27.8928 50.2357 27.8928C50.1011 27.8928 50.084 27.8024 50.084 27.0893C50.084 26.3122 50.0917 26.2802 50.3187 26.1109C50.7329 25.8018 50.7666 25.8521 50.7666 26.7788ZM5.88722 26.8394C5.88722 26.8701 5.7519 27.1373 5.58646 27.4331C5.30285 27.9402 5.23621 27.9987 4.42395 28.4546C3.95007 28.7206 3.48455 28.9586 3.38959 28.9834C3.21818 29.0282 3.21809 29.0266 3.37892 28.7511C3.62849 28.3235 4.59869 27.4496 5.20951 27.1022C5.76623 26.7856 5.88722 26.7386 5.88722 26.8394ZM49.2126 27.6931C49.2363 28.4495 49.2302 28.4782 49.0091 28.6521C48.8837 28.7507 48.7096 28.8313 48.6221 28.8313C48.478 28.8313 48.4629 28.7551 48.4629 28.0279C48.4629 27.251 48.4707 27.2186 48.6976 27.0482C49.1144 26.735 49.1853 26.8239 49.2126 27.6931ZM2.51299 27.7359C2.78303 27.8588 2.78756 28.0335 2.5292 28.3564C2.33962 28.5933 2.31479 28.6006 2.06036 28.4953C1.74578 28.365 1.7189 28.1791 1.96864 27.8617C2.16863 27.6073 2.20993 27.5978 2.51299 27.7359ZM50.7666 29.637C50.7666 30.3729 50.7502 30.4543 50.5769 30.5756C50.4727 30.6486 50.3191 30.7084 50.2357 30.7084C50.1012 30.7084 50.084 30.6182 50.084 29.9083C50.084 29.175 50.1001 29.097 50.276 28.9742C50.3816 28.9005 50.5351 28.8383 50.6173 28.8358C50.7493 28.8319 50.7666 28.9249 50.7666 29.637ZM1.84756 29.6282C1.82197 29.7295 1.73639 30.0237 1.65738 30.2818C1.55491 30.6165 1.50184 31.1901 1.47223 32.2823C1.43281 33.7388 1.42036 33.8293 1.21687 34.1367C1.09929 34.3144 0.969343 34.439 0.928132 34.4135C0.826343 34.3506 0.83607 31.2344 0.940334 30.5133C1.0219 29.9492 1.18222 29.5778 1.43495 29.3679C1.62359 29.2112 1.90754 29.3903 1.84756 29.6282ZM4.86336 30.3187V31.2941L4.61558 31.4705C4.13385 31.8135 4.09546 31.7547 4.09546 30.6741V29.7013L4.37276 29.5237C4.84757 29.2196 4.86336 29.2452 4.86336 30.3187ZM49.2126 30.5147C49.2363 31.2647 49.23 31.2939 49.0091 31.4677C48.8837 31.5663 48.7096 31.647 48.6221 31.647C48.478 31.647 48.4629 31.5708 48.4629 30.8448V30.0426L48.7402 29.8651C48.8927 29.7675 49.0559 29.6997 49.1028 29.7143C49.1498 29.729 49.1992 30.0892 49.2126 30.5147ZM3.15692 31.3464V32.3156L2.85615 32.5016C2.35975 32.8083 2.26982 32.7021 2.32989 31.8795C2.40762 30.8158 2.4641 30.6268 2.75804 30.4481C2.90044 30.3615 3.04839 30.3101 3.08687 30.334C3.12543 30.3578 3.15692 30.8134 3.15692 31.3464ZM50.1694 32.0569C50.1694 32.188 49.6596 32.9283 49.2969 33.3238C48.8654 33.7944 48.3012 34.2222 48.197 34.1577C48.114 34.1066 48.3469 33.6152 48.7646 32.9603C49.101 32.4327 50.1694 31.7457 50.1694 32.0569ZM4.86336 33.345V34.1897L4.55816 34.3699C4.39033 34.4688 4.21755 34.528 4.17421 34.5013C4.13086 34.4745 4.09546 34.0895 4.09546 33.6457V32.839L4.37276 32.6699C4.84177 32.384 4.86336 32.4137 4.86336 33.345ZM48.3776 33.0555C48.3776 33.0793 48.1822 33.4425 47.9433 33.8626L47.509 34.6264L45.6183 35.7123C44.5784 36.3096 42.9213 37.2655 41.9358 37.8367C39.7988 39.0754 39.6112 39.1742 39.5586 39.0892C39.5364 39.0531 39.7232 38.6637 39.9739 38.2238L40.4296 37.4239L44.2942 35.218C47.7809 33.2278 48.3776 32.9118 48.3776 33.0555ZM3.15692 34.3385V35.143L2.80582 35.3647C2.5908 35.5004 2.42417 35.5557 2.37579 35.5074C2.33245 35.464 2.30805 35.0683 2.32161 34.628L2.34636 33.8276L2.68346 33.6387C2.86895 33.5349 3.05129 33.4689 3.08874 33.492C3.12628 33.5152 3.15692 33.8961 3.15692 34.3385ZM1.45047 36.64C1.45047 38.7273 1.44996 38.7329 1.23606 39.0717C1.11823 39.2585 0.983849 39.4113 0.937433 39.4113C0.884278 39.4113 0.85322 38.6393 0.85322 37.3192C0.85322 35.2319 0.853732 35.2263 1.06763 34.8875C1.18546 34.7007 1.31985 34.5479 1.36626 34.5479C1.41942 34.5479 1.45047 35.3199 1.45047 36.64ZM4.86336 36.218V37.0247L4.58606 37.1938C4.1167 37.48 4.09546 37.4505 4.09546 36.5124V35.6612L4.41542 35.4969C4.59144 35.4064 4.76413 35.3502 4.79937 35.3719C4.8346 35.3935 4.86336 35.7743 4.86336 36.218ZM3.13866 37.1684L3.11425 37.9972L2.82143 38.1942C2.66043 38.3026 2.48765 38.3777 2.43748 38.3611C2.38364 38.3432 2.33637 37.9952 2.32195 37.5095L2.29764 36.6881L2.62058 36.5177C3.15785 36.2341 3.16588 36.2442 3.13866 37.1684ZM39.8454 37.9152C39.8454 38.0615 38.8953 39.5594 38.7289 39.6755C38.3088 39.9687 31.0595 44.104 30.9657 44.104C30.8381 44.104 30.8697 44.034 31.4179 43.1009L31.8819 42.311L35.757 40.0946C39.2417 38.1014 39.8454 37.7797 39.8454 37.9152ZM4.86336 39.0211C4.86336 39.7885 4.85303 39.8336 4.63853 40.0023C4.5149 40.0996 4.34212 40.1792 4.25458 40.1792C4.11056 40.1792 4.09546 40.1029 4.09546 39.3757C4.09546 38.5986 4.10314 38.5666 4.33009 38.3972C4.79826 38.0479 4.86336 38.1241 4.86336 39.0211ZM3.15692 40.0098V40.8642L2.87962 41.0333C2.35071 41.3559 2.3037 41.3036 2.3037 40.3938V39.5844L2.62365 39.3748C3.14105 39.036 3.15692 39.055 3.15692 40.0098ZM1.45073 41.5657C1.4509 43.5476 1.44288 43.65 1.25884 43.9973C0.89085 44.6922 0.85322 44.5346 0.85322 42.2984C0.85322 40.2442 0.853988 40.2355 1.07011 39.8667C1.18939 39.6632 1.32377 39.4966 1.36874 39.4966C1.41856 39.4966 1.45056 40.304 1.45073 41.5657ZM4.86336 41.8786V42.7249L4.56627 42.9085C4.40287 43.0095 4.2301 43.0679 4.18232 43.0384C4.13343 43.0082 4.09546 42.6365 4.09546 42.1876V41.3904L4.37276 41.2129C4.8404 40.9134 4.86336 40.9445 4.86336 41.8786ZM3.139 42.914L3.11425 43.7138L2.82143 43.9108C2.66043 44.0192 2.48765 44.0943 2.43748 44.0777C2.38373 44.0599 2.33638 43.7138 2.32204 43.2329L2.29781 42.4184L2.66333 42.2011C2.86443 42.0815 3.05922 42.0131 3.09634 42.049C3.13336 42.0848 3.15256 42.4741 3.139 42.914ZM31.2279 42.8353C31.2279 42.9795 30.4028 44.3937 30.2277 44.5495C30.1443 44.6239 29.4233 45.0581 28.6255 45.5147C27.8278 45.9712 26.6951 46.6221 26.1085 46.9611C25.522 47.3002 24.5237 47.8754 23.8902 48.2395C23.2567 48.6037 22.7018 48.9356 22.6573 48.9772C22.543 49.0836 22.3544 49.0711 22.3544 48.957C22.3544 48.7714 23.2369 47.3351 23.4554 47.1651C23.5772 47.0703 24.2336 46.6743 24.914 46.2851C25.5945 45.8958 27.2647 44.9399 28.6255 44.1608C29.9864 43.3817 31.1287 42.743 31.1639 42.7416C31.199 42.74 31.2279 42.7823 31.2279 42.8353ZM4.86336 44.7381C4.86336 45.529 4.85909 45.5458 4.61558 45.7193C4.14819 46.0521 4.09546 45.9885 4.09546 45.0914C4.09546 44.324 4.10578 44.2789 4.32028 44.1102C4.44391 44.013 4.61669 43.9333 4.70423 43.9333C4.84826 43.9333 4.86336 44.0096 4.86336 44.7381ZM1.45047 46.6222C1.45047 48.6465 1.44433 48.7233 1.2585 49.0102C0.881633 49.5919 0.85322 49.4688 0.85322 47.2565C0.85322 45.2848 0.860729 45.1912 1.0452 44.8681C1.41728 44.2165 1.45047 44.3601 1.45047 46.6222ZM3.15692 45.7181V46.5644L2.86955 46.742C2.33416 47.0729 2.29439 47.0256 2.32195 46.0909L2.34636 45.2621L2.63628 45.067C3.12782 44.7361 3.15692 44.7725 3.15692 45.7181ZM29.2655 48.0359C29.2655 49.291 29.2392 49.7407 29.1672 49.7167C29.0312 49.6713 27.6525 47.2529 27.6979 47.1394C27.7478 47.0152 28.9291 46.3417 29.1161 46.331C29.2537 46.323 29.2655 46.4576 29.2655 48.0359ZM4.86336 47.6V48.4511L4.61166 48.5812C4.12447 48.8331 4.09546 48.7947 4.09546 47.8995V47.0878L4.37276 46.9187C4.84211 46.6325 4.86336 46.662 4.86336 47.6ZM27.6757 47.7942C28.1892 48.6009 29.1801 50.3975 29.1801 50.5219C29.1801 50.6497 27.521 51.6426 27.3847 51.5965C27.2421 51.5481 25.523 48.5241 25.5694 48.4033C25.6115 48.2934 27.1819 47.3488 27.3254 47.347C27.3612 47.3466 27.5188 47.5478 27.6757 47.7942ZM22.6957 47.6839C22.6957 47.7289 22.47 48.1575 22.1941 48.6363L21.6926 49.5069L17.7954 51.7541C15.6521 52.9901 13.862 54.0013 13.8176 54.0013C13.6694 54.0013 13.7334 53.8438 14.2357 52.9719L14.7345 52.106L18.6511 49.8602C20.8052 48.6249 22.5964 47.6116 22.6317 47.6082C22.6669 47.6049 22.6957 47.639 22.6957 47.6839ZM3.15692 48.5822V49.3916L2.82057 49.6142C2.63551 49.7365 2.44354 49.8116 2.39396 49.781C2.34089 49.7482 2.3037 49.3964 2.3037 48.928V48.1308L2.58099 47.9533C3.10709 47.6164 3.15692 47.6708 3.15692 48.5822ZM26.1576 50.0979C26.6234 50.9073 27.0044 51.641 27.0044 51.7282C27.0044 51.8392 26.7491 52.0344 26.1529 52.3792C25.6846 52.6501 25.2622 52.8562 25.2144 52.8374C25.1116 52.7968 23.3782 49.8059 23.3782 49.6691C23.3782 49.5578 24.9823 48.628 25.1764 48.6268C25.2612 48.6264 25.6236 49.1696 26.1576 50.0979ZM31.1562 49.4824C32.113 49.7934 33.1359 50.2924 33.8222 50.7829C34.4735 51.2484 34.5527 51.3758 34.3782 51.6779C34.3042 51.8061 33.5968 53.0244 32.8062 54.3853C32.0155 55.7462 31.1226 57.29 30.822 57.816C30.5213 58.3419 30.2113 58.7905 30.133 58.8127C29.8765 58.8853 29.0644 59.0324 28.4122 59.1245C27.6281 59.2352 24.8344 59.2458 24.7272 59.1386C24.6804 59.0918 25.2858 57.9589 26.2457 56.2965C28.9314 51.6453 28.7296 51.9633 29.1569 51.711C29.3682 51.5864 29.6902 51.3785 29.8725 51.2492L30.204 51.014V50.1755C30.204 49.4571 30.237 49.2233 30.3385 49.2233C30.3499 49.2233 30.7179 49.3399 31.1562 49.4824ZM1.45047 51.5715V53.6637L1.22582 54.0031C1.10228 54.1899 0.967894 54.3426 0.927195 54.3426C0.886496 54.3426 0.85322 53.4 0.85322 52.2478C0.85322 50.2319 0.860473 50.1404 1.0452 49.8168C1.41728 49.1651 1.45047 49.3088 1.45047 51.5715ZM4.86336 50.4191V51.2735L4.58606 51.4426C4.11704 51.7286 4.09546 51.6988 4.09546 50.767V49.9216L4.37276 49.7502C4.84689 49.4571 4.86336 49.4795 4.86336 50.4191ZM24.0286 51.3982C24.5158 52.2423 24.902 52.9708 24.8867 53.017C24.8473 53.135 23.2778 54.0814 23.1223 54.0809C22.9934 54.0805 21.2445 51.1267 21.246 50.9118C21.2468 50.7849 22.8505 49.8271 23.0257 49.8487C23.0899 49.8567 23.5412 50.5539 24.0286 51.3982ZM3.15692 51.44V52.2914L2.81273 52.467C2.6234 52.5636 2.43142 52.6197 2.38612 52.5917C2.34081 52.5638 2.3037 52.1792 2.3037 51.7373V50.9338L2.62365 50.7649C3.14992 50.4871 3.15692 50.496 3.15692 51.44ZM20.136 51.6236C20.136 51.7652 19.794 52.2949 19.7024 52.2949C19.5364 52.2949 19.6244 51.7924 19.8137 51.6599C20.0384 51.5024 20.136 51.4914 20.136 51.6236ZM22.025 52.8795C22.4408 53.5956 22.781 54.2148 22.781 54.2556C22.781 54.3703 21.2588 55.2144 21.1611 55.1539C21.0328 55.0747 21.0435 51.5024 21.1718 51.5452C21.2253 51.563 21.6093 52.1635 22.025 52.8795ZM35.1052 51.9976C35.9332 53.0831 36.0256 54.4512 35.3498 55.6203C35.0132 56.2027 33.9892 57.1514 33.2332 57.5814C32.6401 57.9187 31.5342 58.4036 30.9932 58.5635C30.5926 58.6819 30.517 58.8276 33.6787 53.3828C34.2169 52.456 34.7065 51.6976 34.7669 51.6976C34.8271 51.6976 34.9794 51.8326 35.1052 51.9976ZM18.6855 53.8237C18.6855 54.6176 18.7092 55.3289 18.7381 55.4042C18.767 55.4796 19.0645 55.7002 19.3993 55.8945C19.7341 56.0888 20.0347 56.2884 20.0674 56.338C20.1353 56.4411 19.6334 57.4118 19.4805 57.473C19.1777 57.5942 17.6808 56.1209 17.2769 55.3041C16.9683 54.6802 16.8624 53.4365 17.1009 53.2386C17.341 53.0393 18.4663 52.389 18.5789 52.3845C18.6602 52.3812 18.6855 52.7236 18.6855 53.8237ZM20.2213 53.788C20.2213 54.6078 20.1879 55.1211 20.1322 55.1555C20.0833 55.1858 19.9489 55.1488 19.8336 55.0732C19.6321 54.9412 19.6241 54.8999 19.6241 53.9977C19.6241 53.1403 19.6428 53.0299 19.8404 52.7166C19.9595 52.5282 20.0939 52.3968 20.1391 52.4248C20.1861 52.4539 20.2213 53.0376 20.2213 53.788ZM28.1258 52.5072C28.0747 52.6403 25.4496 57.2022 24.7251 58.4168C24.4943 58.804 24.2659 59.1207 24.2178 59.1207C23.9404 59.1207 22.3243 58.7375 21.6506 58.512C20.7421 58.208 19.8916 57.7996 19.8295 57.6378C19.7576 57.4504 20.3262 56.5647 20.52 56.5622C20.7454 56.5592 20.7629 56.5494 26.2365 53.3734C27.1751 52.8288 27.9951 52.3825 28.0588 52.3817C28.1264 52.3808 28.1543 52.433 28.1258 52.5072ZM4.86336 53.2699C4.86336 54.0373 4.85303 54.0824 4.63853 54.2511C4.5149 54.3484 4.34212 54.428 4.25458 54.428C4.11056 54.428 4.09546 54.3517 4.09546 53.6236C4.09546 52.8562 4.10578 52.8111 4.32028 52.6424C4.44391 52.5452 4.61669 52.4655 4.70423 52.4655C4.84826 52.4655 4.86336 52.5418 4.86336 53.2699ZM14.0761 52.6575C14.0751 52.7162 13.8533 53.1467 13.5834 53.6141C13.0983 54.4541 13.0842 54.4689 12.3696 54.8824C11.9719 55.1124 10.9461 55.7091 10.0899 56.2081C9.23381 56.7072 8.27394 57.2589 7.95688 57.4338C7.05537 57.9315 6.66442 58.1577 5.92988 58.6063C5.21906 59.0405 5.01216 59.0496 5.22376 58.6373C5.91393 57.2924 6.24259 56.817 6.48226 56.817C6.55854 56.817 6.65742 56.7806 6.70205 56.7362C6.80895 56.6295 13.9313 52.5543 14.0141 52.5524C14.0494 52.5516 14.0772 52.5989 14.0761 52.6575ZM3.15692 54.2586V55.113L2.87962 55.2821C2.35071 55.6046 2.3037 55.5524 2.3037 54.6425V53.8332L2.62365 53.6236C3.14105 53.2848 3.15692 53.3038 3.15692 54.2586ZM1.43017 56.5326C1.40654 58.7575 1.35986 58.9897 1.05031 58.4222C0.921734 58.1866 0.891359 57.8886 0.867896 56.634C0.839825 55.1385 0.841103 55.1263 1.06081 54.7783C1.18248 54.5856 1.32036 54.428 1.36729 54.428C1.42241 54.428 1.44467 55.1717 1.43017 56.5326ZM4.86336 56.0042C4.86336 56.7186 4.86037 56.7288 4.61166 56.8574C4.13735 57.1027 4.09546 57.0586 4.09546 56.3134C4.09546 55.6461 4.09827 55.6374 4.37276 55.4616C4.8317 55.1678 4.86336 55.2028 4.86336 56.0042ZM3.19173 56.9993L3.24761 57.6508L2.85974 57.8781C2.64644 58.0031 2.43407 58.082 2.38782 58.0534C2.34158 58.0248 2.3037 57.7004 2.3037 57.3326V56.6637L2.66631 56.448C2.86571 56.3295 3.05299 56.2585 3.08234 56.2901C3.11178 56.3218 3.16101 56.6409 3.19173 56.9993ZM5.63126 57.4162C5.63126 57.4642 5.49397 57.7234 5.32614 57.9921C5.15832 58.2609 4.89919 58.6919 4.75022 58.95C4.2888 59.7497 3.37654 60.0488 2.8222 59.5823C2.34346 59.1795 2.40728 59.1115 4.18078 58.1339C4.57966 57.914 5.03997 57.643 5.20362 57.5315C5.52878 57.3101 5.63126 57.2825 5.63126 57.4162ZM18.279 57.8098C18.8929 58.286 20.292 59.0327 20.9264 59.2228C21.2676 59.325 21.6718 59.7185 21.6718 59.9485C21.6718 60.1448 21.2789 60.0411 20.3434 59.598C19.4201 59.1606 18.9733 58.8665 18.307 58.2575C17.8899 57.8763 17.4822 57.3289 17.6155 57.3289C17.6395 57.3289 17.938 57.5453 18.279 57.8098ZM35.238 57.3665C35.238 57.3873 35.1996 57.4279 35.1527 57.4569C35.1058 57.4859 35.0674 57.4689 35.0674 57.4193C35.0674 57.3696 35.1058 57.3289 35.1527 57.3289C35.1996 57.3289 35.238 57.3458 35.238 57.3665ZM34.7772 57.8545C34.8953 58.0455 33.3093 59.2699 33.0651 59.1762C32.7724 59.0639 32.93 58.7965 33.4676 58.493C33.7609 58.3273 34.1352 58.0956 34.2995 57.9779C34.6428 57.7318 34.6933 57.7187 34.7772 57.8545ZM32.6749 59.0739C32.8983 59.3431 32.735 59.4939 31.8244 59.8596C31.0474 60.1715 30.9067 60.2043 30.7586 60.1079C30.6647 60.0469 30.5762 59.9187 30.5618 59.823C30.539 59.6719 30.646 59.6142 31.3723 59.3857C31.8325 59.241 32.2667 59.0843 32.3371 59.0376C32.5088 58.9236 32.5543 58.9285 32.6749 59.0739ZM22.7224 59.753C23.0127 59.8199 23.57 59.921 23.9606 59.9776C24.6443 60.0769 24.6762 60.0915 24.8079 60.3676C24.8831 60.5252 24.918 60.681 24.8855 60.7135C24.8128 60.7862 23.6389 60.6334 22.8008 60.4422C22.2726 60.3218 22.1619 60.2646 22.0542 60.0562C21.8857 59.7303 21.8888 59.5141 22.0611 59.5802C22.1344 59.6084 22.432 59.6861 22.7224 59.753ZM30.3435 60.0322C30.3725 60.1478 30.3626 60.275 30.3215 60.3148C30.2513 60.3828 29.4091 60.5716 28.6149 60.6974C28.3001 60.7472 28.2436 60.7285 28.0793 60.5198C27.9784 60.3914 27.9094 60.2451 27.9262 60.1949C27.943 60.1445 28.28 60.0568 28.675 59.9999C29.0702 59.943 29.547 59.8627 29.7347 59.8215C30.1622 59.7277 30.2771 59.7675 30.3435 60.0322ZM27.6837 60.3648C27.9563 60.7808 27.8463 60.8271 26.5863 60.8271H25.4376L25.2611 60.5793C25.1641 60.443 25.0847 60.2894 25.0847 60.238C25.0847 60.1746 25.4793 60.1445 26.312 60.1445C27.5373 60.1445 27.5397 60.1449 27.6837 60.3648Z" fill="#57C2DE"/>
</svg>
