<svg width="102" height="65" viewBox="0 0 102 65" fill="none" xmlns="http://www.w3.org/2000/svg">
<path d="M51.0781 3C48.0525 3 45.5781 5.47443 45.5781 8.5V37V39.9727L41.0352 35.3145C37.9917 32.1933 32.9467 32.1834 29.8906 35.291L28 37.2129L36.0234 45.8477C36.1022 46.0275 37.4203 49.0629 39.7656 52.7598C42.1573 56.5297 45.4892 60.8265 49.582 62.9805C51.2504 64.2369 53.3268 65 55.5781 65H70.5781C77.1936 65 82.5781 59.6155 82.5781 53V28C82.5781 25.2505 80.3276 23 77.5781 23C76.3712 23 75.2747 23.4508 74.4082 24.1699C73.8088 21.7828 71.6446 20 69.0781 20C67.5812 20 66.2207 20.6075 65.2266 21.5859C64.4445 19.4982 62.4306 18 60.0781 18C58.7515 18 57.5307 18.4763 56.5781 19.2656V8.5C56.5781 5.47442 54.1037 3 51.0781 3V3ZM51.0781 5.00001C53.0225 5.00001 54.5781 6.55558 54.5781 8.5V23.5V25C54.573 25.3606 54.7625 25.6961 55.074 25.8779C55.3855 26.0597 55.7708 26.0597 56.0823 25.8779C56.3938 25.6961 56.5832 25.3606 56.5781 25V23.5C56.5781 21.5556 58.1337 20 60.0781 20C62.0226 20 63.5781 21.5556 63.5781 23.5V27C63.573 27.3606 63.7625 27.6961 64.074 27.8779C64.3855 28.0597 64.7708 28.0597 65.0823 27.8779C65.3938 27.6961 65.5832 27.3606 65.5781 27V25.5C65.5781 23.5556 67.1337 22 69.0781 22C71.0226 22 72.5781 23.5556 72.5781 25.5V28C72.573 28.3606 72.7625 28.6961 73.074 28.8779C73.3855 29.0597 73.7708 29.0597 74.0823 28.8779C74.3938 28.6961 74.5832 28.3606 74.5781 28C74.5781 26.3315 75.9097 25 77.5781 25C79.2466 25 80.5781 26.3315 80.5781 28V53C80.5781 58.5345 76.1127 63 70.5781 63H55.5781C53.76 63 52.0974 62.3901 50.752 61.3672L50.6836 61.3145L50.6055 61.2734C47.0751 59.456 43.7807 55.3532 41.4551 51.6875C39.1295 48.0218 37.7481 44.8477 37.7481 44.8477L37.6797 44.6914L30.7676 37.252L31.3164 36.6934C33.6043 34.3669 37.3249 34.3741 39.6035 36.7109L47.5781 44.8887V37V8.5C47.5781 6.55558 49.1337 5.00001 51.0781 5.00001H51.0781ZM55.5781 28C55.0258 28 54.5781 28.4477 54.5781 29C54.5781 29.5523 55.0258 30 55.5781 30C56.1304 30 56.5781 29.5523 56.5781 29C56.5781 28.4477 56.1304 28 55.5781 28ZM64.5781 30C64.0258 30 63.5781 30.4477 63.5781 31C63.5781 31.5523 64.0258 32 64.5781 32C65.1304 32 65.5781 31.5523 65.5781 31C65.5781 30.4477 65.1304 30 64.5781 30ZM73.5781 31C73.0258 31 72.5781 31.4477 72.5781 32C72.5781 32.5523 73.0258 33 73.5781 33C74.1304 33 74.5781 32.5523 74.5781 32C74.5781 31.4477 74.1304 31 73.5781 31ZM55.5781 32C55.0258 32 54.5781 32.4477 54.5781 33C54.5781 33.5523 55.0258 34 55.5781 34C56.1304 34 56.5781 33.5523 56.5781 33C56.5781 32.4477 56.1304 32 55.5781 32Z" fill="#57C2DE"/>
<path d="M65 7C64.4477 7 64 7.44772 64 8C64 8.55228 64.4477 9 65 9V7ZM101.707 8.70711C102.098 8.31658 102.098 7.68342 101.707 7.29289L95.3431 0.928932C94.9526 0.538408 94.3195 0.538408 93.9289 0.928932C93.5384 1.31946 93.5384 1.95262 93.9289 2.34315L99.5858 8L93.9289 13.6569C93.5384 14.0474 93.5384 14.6805 93.9289 15.0711C94.3195 15.4616 94.9526 15.4616 95.3431 15.0711L101.707 8.70711ZM65 9H101V7H65V9Z" fill="#57C2DE"/>
<path d="M37 7C37.5523 7 38 7.44772 38 8C38 8.55228 37.5523 9 37 9V7ZM0.292892 8.70711C-0.0976295 8.31658 -0.0976295 7.68342 0.292892 7.29289L6.65685 0.928932C7.04738 0.538408 7.68054 0.538408 8.07107 0.928932C8.46159 1.31946 8.46159 1.95262 8.07107 2.34315L2.41422 8L8.07107 13.6569C8.46159 14.0474 8.46159 14.6805 8.07107 15.0711C7.68054 15.4616 7.04738 15.4616 6.65685 15.0711L0.292892 8.70711ZM37 9H1V7H37V9Z" fill="#57C2DE"/>
</svg>
